{
    "report": [
        {
            "catname": "Communication",
            "catdescription": "new_desc",
            "timeused": "00:00:00"
        },
        {
            "catname": "Design_Creativity",
            "catdescription": "new_desc",
            "timeused": "00:00:00"
        },
        {
            "catname": "Development",
            "catdescription": "new_desc",
            "timeused": "00:00:00"
        },
        {
            "catname": "Education",
            "catdescription": "new_desc",
            "timeused": "00:00:00"
        },
        {
            "catname": "Entertainment",
            "catdescription": "new_desc",
            "timeused": "00:00:00"
        },
        {
            "catname": "Management",
            "catdescription": "new_desc",
            "timeused": "00:00:00"
        },
        {
            "catname": "Uncategorized",
            "catdescription": "new_desc",
            "timeused": "00:00:00"
        },
        {
            "catname": "Utilities",
            "catdescription": "new_desc",
            "timeused": "00:00:00"
        }
    ]
}