// Jest Snapshot v1, https://goo.gl/fbAQLP

exports[`<TextField/> Functioning without any errors 1`] = `
<CategoriesChart>
  <WithStyles(ForwardRef(Paper))
    className="wrapper"
  >
    <ForwardRef(Paper)
      className="wrapper"
      classes={
        Object {
          "elevation0": "MuiPaper-elevation0",
          "elevation1": "MuiPaper-elevation1",
          "elevation10": "MuiPaper-elevation10",
          "elevation11": "MuiPaper-elevation11",
          "elevation12": "MuiPaper-elevation12",
          "elevation13": "MuiPaper-elevation13",
          "elevation14": "MuiPaper-elevation14",
          "elevation15": "MuiPaper-elevation15",
          "elevation16": "MuiPaper-elevation16",
          "elevation17": "MuiPaper-elevation17",
          "elevation18": "MuiPaper-elevation18",
          "elevation19": "MuiPaper-elevation19",
          "elevation2": "MuiPaper-elevation2",
          "elevation20": "MuiPaper-elevation20",
          "elevation21": "MuiPaper-elevation21",
          "elevation22": "MuiPaper-elevation22",
          "elevation23": "MuiPaper-elevation23",
          "elevation24": "MuiPaper-elevation24",
          "elevation3": "MuiPaper-elevation3",
          "elevation4": "MuiPaper-elevation4",
          "elevation5": "MuiPaper-elevation5",
          "elevation6": "MuiPaper-elevation6",
          "elevation7": "MuiPaper-elevation7",
          "elevation8": "MuiPaper-elevation8",
          "elevation9": "MuiPaper-elevation9",
          "outlined": "MuiPaper-outlined",
          "root": "MuiPaper-root",
          "rounded": "MuiPaper-rounded",
        }
      }
    >
      <div
        className="MuiPaper-root wrapper MuiPaper-elevation1 MuiPaper-rounded"
      >
        <div
          className="form"
        >
          <WithStyles(ForwardRef(TextField))
            label="email"
            name="userEmail"
            onChange={[Function]}
            value=""
          >
            <ForwardRef(TextField)
              classes={
                Object {
                  "root": "MuiTextField-root",
                }
              }
              label="email"
              name="userEmail"
              onChange={[Function]}
              value=""
            >
              <WithStyles(ForwardRef(FormControl))
                className="MuiTextField-root"
                color="primary"
                disabled={false}
                error={false}
                fullWidth={false}
                required={false}
                variant="standard"
              >
                <ForwardRef(FormControl)
                  className="MuiTextField-root"
                  classes={
                    Object {
                      "fullWidth": "MuiFormControl-fullWidth",
                      "marginDense": "MuiFormControl-marginDense",
                      "marginNormal": "MuiFormControl-marginNormal",
                      "root": "MuiFormControl-root",
                    }
                  }
                  color="primary"
                  disabled={false}
                  error={false}
                  fullWidth={false}
                  required={false}
                  variant="standard"
                >
                  <div
                    className="MuiFormControl-root MuiTextField-root"
                  >
                    <WithStyles(ForwardRef(InputLabel))>
                      <ForwardRef(InputLabel)
                        classes={
                          Object {
                            "animated": "MuiInputLabel-animated",
                            "asterisk": "MuiInputLabel-asterisk",
                            "disabled": "Mui-disabled",
                            "error": "Mui-error",
                            "filled": "MuiInputLabel-filled",
                            "focused": "Mui-focused",
                            "formControl": "MuiInputLabel-formControl",
                            "marginDense": "MuiInputLabel-marginDense",
                            "outlined": "MuiInputLabel-outlined",
                            "required": "Mui-required",
                            "root": "MuiInputLabel-root",
                            "shrink": "MuiInputLabel-shrink",
                          }
                        }
                      >
                        <WithStyles(ForwardRef(FormLabel))
                          className="MuiInputLabel-root MuiInputLabel-formControl MuiInputLabel-animated"
                          classes={
                            Object {
                              "asterisk": "MuiInputLabel-asterisk",
                              "disabled": "Mui-disabled",
                              "error": "Mui-error",
                              "focused": "Mui-focused",
                              "required": "Mui-required",
                            }
                          }
                          data-shrink={false}
                        >
                          <ForwardRef(FormLabel)
                            className="MuiInputLabel-root MuiInputLabel-formControl MuiInputLabel-animated"
                            classes={
                              Object {
                                "asterisk": "MuiFormLabel-asterisk MuiInputLabel-asterisk",
                                "colorSecondary": "MuiFormLabel-colorSecondary",
                                "disabled": "Mui-disabled Mui-disabled",
                                "error": "Mui-error Mui-error",
                                "filled": "MuiFormLabel-filled",
                                "focused": "Mui-focused Mui-focused",
                                "required": "Mui-required Mui-required",
                                "root": "MuiFormLabel-root",
                              }
                            }
                            data-shrink={false}
                          >
                            <label
                              className="MuiFormLabel-root MuiInputLabel-root MuiInputLabel-formControl MuiInputLabel-animated"
                              data-shrink={false}
                            >
                              email
                            </label>
                          </ForwardRef(FormLabel)>
                        </WithStyles(ForwardRef(FormLabel))>
                      </ForwardRef(InputLabel)>
                    </WithStyles(ForwardRef(InputLabel))>
                    <WithStyles(ForwardRef(Input))
                      autoFocus={false}
                      fullWidth={false}
                      multiline={false}
                      name="userEmail"
                      onChange={[Function]}
                      value=""
                    >
                      <ForwardRef(Input)
                        autoFocus={false}
                        classes={
                          Object {
                            "colorSecondary": "MuiInput-colorSecondary",
                            "disabled": "Mui-disabled",
                            "error": "Mui-error",
                            "focused": "Mui-focused",
                            "formControl": "MuiInput-formControl",
                            "fullWidth": "MuiInput-fullWidth",
                            "input": "MuiInput-input",
                            "inputMarginDense": "MuiInput-inputMarginDense",
                            "inputMultiline": "MuiInput-inputMultiline",
                            "inputTypeSearch": "MuiInput-inputTypeSearch",
                            "marginDense": "MuiInput-marginDense",
                            "multiline": "MuiInput-multiline",
                            "root": "MuiInput-root",
                            "underline": "MuiInput-underline",
                          }
                        }
                        fullWidth={false}
                        multiline={false}
                        name="userEmail"
                        onChange={[Function]}
                        value=""
                      >
                        <WithStyles(ForwardRef(InputBase))
                          autoFocus={false}
                          classes={
                            Object {
                              "colorSecondary": "MuiInput-colorSecondary",
                              "disabled": "Mui-disabled",
                              "error": "Mui-error",
                              "focused": "Mui-focused",
                              "formControl": "MuiInput-formControl",
                              "fullWidth": "MuiInput-fullWidth",
                              "input": "MuiInput-input",
                              "inputMarginDense": "MuiInput-inputMarginDense",
                              "inputMultiline": "MuiInput-inputMultiline",
                              "inputTypeSearch": "MuiInput-inputTypeSearch",
                              "marginDense": "MuiInput-marginDense",
                              "multiline": "MuiInput-multiline",
                              "root": "MuiInput-root MuiInput-underline",
                              "underline": null,
                            }
                          }
                          fullWidth={false}
                          inputComponent="input"
                          multiline={false}
                          name="userEmail"
                          onChange={[Function]}
                          type="text"
                          value=""
                        >
                          <ForwardRef(InputBase)
                            autoFocus={false}
                            classes={
                              Object {
                                "adornedEnd": "MuiInputBase-adornedEnd",
                                "adornedStart": "MuiInputBase-adornedStart",
                                "colorSecondary": "MuiInputBase-colorSecondary MuiInput-colorSecondary",
                                "disabled": "Mui-disabled Mui-disabled",
                                "error": "Mui-error Mui-error",
                                "focused": "Mui-focused Mui-focused",
                                "formControl": "MuiInputBase-formControl MuiInput-formControl",
                                "fullWidth": "MuiInputBase-fullWidth MuiInput-fullWidth",
                                "input": "MuiInputBase-input MuiInput-input",
                                "inputAdornedEnd": "MuiInputBase-inputAdornedEnd",
                                "inputAdornedStart": "MuiInputBase-inputAdornedStart",
                                "inputHiddenLabel": "MuiInputBase-inputHiddenLabel",
                                "inputMarginDense": "MuiInputBase-inputMarginDense MuiInput-inputMarginDense",
                                "inputMultiline": "MuiInputBase-inputMultiline MuiInput-inputMultiline",
                                "inputTypeSearch": "MuiInputBase-inputTypeSearch MuiInput-inputTypeSearch",
                                "marginDense": "MuiInputBase-marginDense MuiInput-marginDense",
                                "multiline": "MuiInputBase-multiline MuiInput-multiline",
                                "root": "MuiInputBase-root MuiInput-root MuiInput-underline",
                              }
                            }
                            fullWidth={false}
                            inputComponent="input"
                            multiline={false}
                            name="userEmail"
                            onChange={[Function]}
                            type="text"
                            value=""
                          >
                            <div
                              className="MuiInputBase-root MuiInput-root MuiInput-underline MuiInputBase-formControl MuiInput-formControl"
                              onClick={[Function]}
                            >
                              <input
                                aria-invalid={false}
                                autoFocus={false}
                                className="MuiInputBase-input MuiInput-input"
                                disabled={false}
                                name="userEmail"
                                onAnimationStart={[Function]}
                                onBlur={[Function]}
                                onChange={[Function]}
                                onFocus={[Function]}
                                required={false}
                                type="text"
                                value=""
                              />
                            </div>
                          </ForwardRef(InputBase)>
                        </WithStyles(ForwardRef(InputBase))>
                      </ForwardRef(Input)>
                    </WithStyles(ForwardRef(Input))>
                  </div>
                </ForwardRef(FormControl)>
              </WithStyles(ForwardRef(FormControl))>
            </ForwardRef(TextField)>
          </WithStyles(ForwardRef(TextField))>
          <MuiPickersUtilsProvider
            utils={[Function]}
          >
            <PickerWithState
              allowKeyboardControl={true}
              className="formInput"
              disableToolbar={true}
              format="dd/MM/yyyy"
              invalidDateMessage="Invalid Date Format"
              label="Min date"
              maxDate={2100-01-01T00:00:00.000Z}
              maxDateMessage="Date should not be after maximal date"
              minDate={1900-01-01T00:00:00.000Z}
              minDateMessage="Date should not be before minimal date"
              onChange={[Function]}
              openTo="date"
              value={2021-02-25T21:00:00.000Z}
              variant="inline"
              views={
                Array [
                  "year",
                  "date",
                ]
              }
            >
              <Wrapper
                DateInputProps={
                  Object {
                    "format": "dd/MM/yyyy",
                    "inputValue": "26/02/2021",
                    "onChange": [Function],
                    "openPicker": [Function],
                    "validationError": "",
                  }
                }
                InputComponent={[Function]}
                className="formInput"
                format="dd/MM/yyyy"
                label="Min date"
                onAccept={[Function]}
                onClear={[Function]}
                onDismiss={[Function]}
                onSetToday={[Function]}
                open={false}
                variant="inline"
              >
                <InlineWrapper
                  DateInputProps={
                    Object {
                      "format": "dd/MM/yyyy",
                      "inputValue": "26/02/2021",
                      "onChange": [Function],
                      "openPicker": [Function],
                      "validationError": "",
                    }
                  }
                  InputComponent={[Function]}
                  className="formInput"
                  format="dd/MM/yyyy"
                  label="Min date"
                  onAccept={[Function]}
                  onClear={[Function]}
                  onDismiss={[Function]}
                  onSetToday={[Function]}
                  open={false}
                >
                  <KeyboardDateInput
                    className="formInput"
                    format="dd/MM/yyyy"
                    inputRef={
                      Object {
                        "current": <input
                          aria-invalid="false"
                          class="MuiInputBase-input MuiInput-input MuiInputBase-inputAdornedEnd"
                          type="text"
                          value="26/02/2021"
                        />,
                      }
                    }
                    inputValue="26/02/2021"
                    keyboardIcon={<KeyboardIcon />}
                    label="Min date"
                    onChange={[Function]}
                    openPicker={[Function]}
                    validationError=""
                  >
                    <Rifm
                      format={[Function]}
                      key="__/__/____"
                      onChange={[Function]}
                      refuse={/\\[\\^\\\\d\\]\\+/gi}
                      value="26/02/2021"
                    >
                      <WithStyles(ForwardRef(TextField))
                        InputProps={
                          Object {
                            "endAdornment": <WithStyles(ForwardRef(InputAdornment))
                              position="end"
                            >
                              <WithStyles(ForwardRef(IconButton))
                                onClick={[Function]}
                              >
                                <KeyboardIcon />
                              </WithStyles(ForwardRef(IconButton))>
                            </WithStyles(ForwardRef(InputAdornment))>,
                          }
                        }
                        className="formInput"
                        error={false}
                        helperText=""
                        inputRef={
                          Object {
                            "current": <input
                              aria-invalid="false"
                              class="MuiInputBase-input MuiInput-input MuiInputBase-inputAdornedEnd"
                              type="text"
                              value="26/02/2021"
                            />,
                          }
                        }
                        label="Min date"
                        onChange={[Function]}
                        value="26/02/2021"
                      >
                        <ForwardRef(TextField)
                          InputProps={
                            Object {
                              "endAdornment": <WithStyles(ForwardRef(InputAdornment))
                                position="end"
                              >
                                <WithStyles(ForwardRef(IconButton))
                                  onClick={[Function]}
                                >
                                  <KeyboardIcon />
                                </WithStyles(ForwardRef(IconButton))>
                              </WithStyles(ForwardRef(InputAdornment))>,
                            }
                          }
                          className="formInput"
                          classes={
                            Object {
                              "root": "MuiTextField-root",
                            }
                          }
                          error={false}
                          helperText=""
                          inputRef={
                            Object {
                              "current": <input
                                aria-invalid="false"
                                class="MuiInputBase-input MuiInput-input MuiInputBase-inputAdornedEnd"
                                type="text"
                                value="26/02/2021"
                              />,
                            }
                          }
                          label="Min date"
                          onChange={[Function]}
                          value="26/02/2021"
                        >
                          <WithStyles(ForwardRef(FormControl))
                            className="MuiTextField-root formInput"
                            color="primary"
                            disabled={false}
                            error={false}
                            fullWidth={false}
                            required={false}
                            variant="standard"
                          >
                            <ForwardRef(FormControl)
                              className="MuiTextField-root formInput"
                              classes={
                                Object {
                                  "fullWidth": "MuiFormControl-fullWidth",
                                  "marginDense": "MuiFormControl-marginDense",
                                  "marginNormal": "MuiFormControl-marginNormal",
                                  "root": "MuiFormControl-root",
                                }
                              }
                              color="primary"
                              disabled={false}
                              error={false}
                              fullWidth={false}
                              required={false}
                              variant="standard"
                            >
                              <div
                                className="MuiFormControl-root MuiTextField-root formInput"
                              >
                                <WithStyles(ForwardRef(InputLabel))>
                                  <ForwardRef(InputLabel)
                                    classes={
                                      Object {
                                        "animated": "MuiInputLabel-animated",
                                        "asterisk": "MuiInputLabel-asterisk",
                                        "disabled": "Mui-disabled",
                                        "error": "Mui-error",
                                        "filled": "MuiInputLabel-filled",
                                        "focused": "Mui-focused",
                                        "formControl": "MuiInputLabel-formControl",
                                        "marginDense": "MuiInputLabel-marginDense",
                                        "outlined": "MuiInputLabel-outlined",
                                        "required": "Mui-required",
                                        "root": "MuiInputLabel-root",
                                        "shrink": "MuiInputLabel-shrink",
                                      }
                                    }
                                  >
                                    <WithStyles(ForwardRef(FormLabel))
                                      className="MuiInputLabel-root MuiInputLabel-formControl MuiInputLabel-animated MuiInputLabel-shrink"
                                      classes={
                                        Object {
                                          "asterisk": "MuiInputLabel-asterisk",
                                          "disabled": "Mui-disabled",
                                          "error": "Mui-error",
                                          "focused": "Mui-focused",
                                          "required": "Mui-required",
                                        }
                                      }
                                      data-shrink={true}
                                    >
                                      <ForwardRef(FormLabel)
                                        className="MuiInputLabel-root MuiInputLabel-formControl MuiInputLabel-animated MuiInputLabel-shrink"
                                        classes={
                                          Object {
                                            "asterisk": "MuiFormLabel-asterisk MuiInputLabel-asterisk",
                                            "colorSecondary": "MuiFormLabel-colorSecondary",
                                            "disabled": "Mui-disabled Mui-disabled",
                                            "error": "Mui-error Mui-error",
                                            "filled": "MuiFormLabel-filled",
                                            "focused": "Mui-focused Mui-focused",
                                            "required": "Mui-required Mui-required",
                                            "root": "MuiFormLabel-root",
                                          }
                                        }
                                        data-shrink={true}
                                      >
                                        <label
                                          className="MuiFormLabel-root MuiInputLabel-root MuiInputLabel-formControl MuiInputLabel-animated MuiInputLabel-shrink MuiFormLabel-filled"
                                          data-shrink={true}
                                        >
                                          Min date
                                        </label>
                                      </ForwardRef(FormLabel)>
                                    </WithStyles(ForwardRef(FormLabel))>
                                  </ForwardRef(InputLabel)>
                                </WithStyles(ForwardRef(InputLabel))>
                                <WithStyles(ForwardRef(Input))
                                  autoFocus={false}
                                  endAdornment={
                                    <WithStyles(ForwardRef(InputAdornment))
                                      position="end"
                                    >
                                      <WithStyles(ForwardRef(IconButton))
                                        onClick={[Function]}
                                      >
                                        <KeyboardIcon />
                                      </WithStyles(ForwardRef(IconButton))>
                                    </WithStyles(ForwardRef(InputAdornment))>
                                  }
                                  fullWidth={false}
                                  inputRef={
                                    Object {
                                      "current": <input
                                        aria-invalid="false"
                                        class="MuiInputBase-input MuiInput-input MuiInputBase-inputAdornedEnd"
                                        type="text"
                                        value="26/02/2021"
                                      />,
                                    }
                                  }
                                  multiline={false}
                                  onChange={[Function]}
                                  value="26/02/2021"
                                >
                                  <ForwardRef(Input)
                                    autoFocus={false}
                                    classes={
                                      Object {
                                        "colorSecondary": "MuiInput-colorSecondary",
                                        "disabled": "Mui-disabled",
                                        "error": "Mui-error",
                                        "focused": "Mui-focused",
                                        "formControl": "MuiInput-formControl",
                                        "fullWidth": "MuiInput-fullWidth",
                                        "input": "MuiInput-input",
                                        "inputMarginDense": "MuiInput-inputMarginDense",
                                        "inputMultiline": "MuiInput-inputMultiline",
                                        "inputTypeSearch": "MuiInput-inputTypeSearch",
                                        "marginDense": "MuiInput-marginDense",
                                        "multiline": "MuiInput-multiline",
                                        "root": "MuiInput-root",
                                        "underline": "MuiInput-underline",
                                      }
                                    }
                                    endAdornment={
                                      <WithStyles(ForwardRef(InputAdornment))
                                        position="end"
                                      >
                                        <WithStyles(ForwardRef(IconButton))
                                          onClick={[Function]}
                                        >
                                          <KeyboardIcon />
                                        </WithStyles(ForwardRef(IconButton))>
                                      </WithStyles(ForwardRef(InputAdornment))>
                                    }
                                    fullWidth={false}
                                    inputRef={
                                      Object {
                                        "current": <input
                                          aria-invalid="false"
                                          class="MuiInputBase-input MuiInput-input MuiInputBase-inputAdornedEnd"
                                          type="text"
                                          value="26/02/2021"
                                        />,
                                      }
                                    }
                                    multiline={false}
                                    onChange={[Function]}
                                    value="26/02/2021"
                                  >
                                    <WithStyles(ForwardRef(InputBase))
                                      autoFocus={false}
                                      classes={
                                        Object {
                                          "colorSecondary": "MuiInput-colorSecondary",
                                          "disabled": "Mui-disabled",
                                          "error": "Mui-error",
                                          "focused": "Mui-focused",
                                          "formControl": "MuiInput-formControl",
                                          "fullWidth": "MuiInput-fullWidth",
                                          "input": "MuiInput-input",
                                          "inputMarginDense": "MuiInput-inputMarginDense",
                                          "inputMultiline": "MuiInput-inputMultiline",
                                          "inputTypeSearch": "MuiInput-inputTypeSearch",
                                          "marginDense": "MuiInput-marginDense",
                                          "multiline": "MuiInput-multiline",
                                          "root": "MuiInput-root MuiInput-underline",
                                          "underline": null,
                                        }
                                      }
                                      endAdornment={
                                        <WithStyles(ForwardRef(InputAdornment))
                                          position="end"
                                        >
                                          <WithStyles(ForwardRef(IconButton))
                                            onClick={[Function]}
                                          >
                                            <KeyboardIcon />
                                          </WithStyles(ForwardRef(IconButton))>
                                        </WithStyles(ForwardRef(InputAdornment))>
                                      }
                                      fullWidth={false}
                                      inputComponent="input"
                                      inputRef={
                                        Object {
                                          "current": <input
                                            aria-invalid="false"
                                            class="MuiInputBase-input MuiInput-input MuiInputBase-inputAdornedEnd"
                                            type="text"
                                            value="26/02/2021"
                                          />,
                                        }
                                      }
                                      multiline={false}
                                      onChange={[Function]}
                                      type="text"
                                      value="26/02/2021"
                                    >
                                      <ForwardRef(InputBase)
                                        autoFocus={false}
                                        classes={
                                          Object {
                                            "adornedEnd": "MuiInputBase-adornedEnd",
                                            "adornedStart": "MuiInputBase-adornedStart",
                                            "colorSecondary": "MuiInputBase-colorSecondary MuiInput-colorSecondary",
                                            "disabled": "Mui-disabled Mui-disabled",
                                            "error": "Mui-error Mui-error",
                                            "focused": "Mui-focused Mui-focused",
                                            "formControl": "MuiInputBase-formControl MuiInput-formControl",
                                            "fullWidth": "MuiInputBase-fullWidth MuiInput-fullWidth",
                                            "input": "MuiInputBase-input MuiInput-input",
                                            "inputAdornedEnd": "MuiInputBase-inputAdornedEnd",
                                            "inputAdornedStart": "MuiInputBase-inputAdornedStart",
                                            "inputHiddenLabel": "MuiInputBase-inputHiddenLabel",
                                            "inputMarginDense": "MuiInputBase-inputMarginDense MuiInput-inputMarginDense",
                                            "inputMultiline": "MuiInputBase-inputMultiline MuiInput-inputMultiline",
                                            "inputTypeSearch": "MuiInputBase-inputTypeSearch MuiInput-inputTypeSearch",
                                            "marginDense": "MuiInputBase-marginDense MuiInput-marginDense",
                                            "multiline": "MuiInputBase-multiline MuiInput-multiline",
                                            "root": "MuiInputBase-root MuiInput-root MuiInput-underline",
                                          }
                                        }
                                        endAdornment={
                                          <WithStyles(ForwardRef(InputAdornment))
                                            position="end"
                                          >
                                            <WithStyles(ForwardRef(IconButton))
                                              onClick={[Function]}
                                            >
                                              <KeyboardIcon />
                                            </WithStyles(ForwardRef(IconButton))>
                                          </WithStyles(ForwardRef(InputAdornment))>
                                        }
                                        fullWidth={false}
                                        inputComponent="input"
                                        inputRef={
                                          Object {
                                            "current": <input
                                              aria-invalid="false"
                                              class="MuiInputBase-input MuiInput-input MuiInputBase-inputAdornedEnd"
                                              type="text"
                                              value="26/02/2021"
                                            />,
                                          }
                                        }
                                        multiline={false}
                                        onChange={[Function]}
                                        type="text"
                                        value="26/02/2021"
                                      >
                                        <div
                                          className="MuiInputBase-root MuiInput-root MuiInput-underline MuiInputBase-formControl MuiInput-formControl MuiInputBase-adornedEnd"
                                          onClick={[Function]}
                                        >
                                          <input
                                            aria-invalid={false}
                                            autoFocus={false}
                                            className="MuiInputBase-input MuiInput-input MuiInputBase-inputAdornedEnd"
                                            disabled={false}
                                            onAnimationStart={[Function]}
                                            onBlur={[Function]}
                                            onChange={[Function]}
                                            onFocus={[Function]}
                                            required={false}
                                            type="text"
                                            value="26/02/2021"
                                          />
                                          <WithStyles(ForwardRef(InputAdornment))
                                            position="end"
                                          >
                                            <ForwardRef(InputAdornment)
                                              classes={
                                                Object {
                                                  "disablePointerEvents": "MuiInputAdornment-disablePointerEvents",
                                                  "filled": "MuiInputAdornment-filled",
                                                  "hiddenLabel": "MuiInputAdornment-hiddenLabel",
                                                  "marginDense": "MuiInputAdornment-marginDense",
                                                  "positionEnd": "MuiInputAdornment-positionEnd",
                                                  "positionStart": "MuiInputAdornment-positionStart",
                                                  "root": "MuiInputAdornment-root",
                                                }
                                              }
                                              position="end"
                                            >
                                              <div
                                                className="MuiInputAdornment-root MuiInputAdornment-positionEnd"
                                              >
                                                <WithStyles(ForwardRef(IconButton))
                                                  onClick={[Function]}
                                                >
                                                  <ForwardRef(IconButton)
                                                    classes={
                                                      Object {
                                                        "colorInherit": "MuiIconButton-colorInherit",
                                                        "colorPrimary": "MuiIconButton-colorPrimary",
                                                        "colorSecondary": "MuiIconButton-colorSecondary",
                                                        "disabled": "Mui-disabled",
                                                        "edgeEnd": "MuiIconButton-edgeEnd",
                                                        "edgeStart": "MuiIconButton-edgeStart",
                                                        "label": "MuiIconButton-label",
                                                        "root": "MuiIconButton-root",
                                                        "sizeSmall": "MuiIconButton-sizeSmall",
                                                      }
                                                    }
                                                    onClick={[Function]}
                                                  >
                                                    <WithStyles(ForwardRef(ButtonBase))
                                                      centerRipple={true}
                                                      className="MuiIconButton-root"
                                                      disabled={false}
                                                      focusRipple={true}
                                                      onClick={[Function]}
                                                    >
                                                      <ForwardRef(ButtonBase)
                                                        centerRipple={true}
                                                        className="MuiIconButton-root"
                                                        classes={
                                                          Object {
                                                            "disabled": "Mui-disabled",
                                                            "focusVisible": "Mui-focusVisible",
                                                            "root": "MuiButtonBase-root",
                                                          }
                                                        }
                                                        disabled={false}
                                                        focusRipple={true}
                                                        onClick={[Function]}
                                                      >
                                                        <button
                                                          className="MuiButtonBase-root MuiIconButton-root"
                                                          disabled={false}
                                                          onBlur={[Function]}
                                                          onClick={[Function]}
                                                          onDragLeave={[Function]}
                                                          onFocus={[Function]}
                                                          onKeyDown={[Function]}
                                                          onKeyUp={[Function]}
                                                          onMouseDown={[Function]}
                                                          onMouseLeave={[Function]}
                                                          onMouseUp={[Function]}
                                                          onTouchEnd={[Function]}
                                                          onTouchMove={[Function]}
                                                          onTouchStart={[Function]}
                                                          tabIndex={0}
                                                          type="button"
                                                        >
                                                          <span
                                                            className="MuiIconButton-label"
                                                          >
                                                            <KeyboardIcon>
                                                              <WithStyles(ForwardRef(SvgIcon))>
                                                                <ForwardRef(SvgIcon)
                                                                  classes={
                                                                    Object {
                                                                      "colorAction": "MuiSvgIcon-colorAction",
                                                                      "colorDisabled": "MuiSvgIcon-colorDisabled",
                                                                      "colorError": "MuiSvgIcon-colorError",
                                                                      "colorPrimary": "MuiSvgIcon-colorPrimary",
                                                                      "colorSecondary": "MuiSvgIcon-colorSecondary",
                                                                      "fontSizeInherit": "MuiSvgIcon-fontSizeInherit",
                                                                      "fontSizeLarge": "MuiSvgIcon-fontSizeLarge",
                                                                      "fontSizeSmall": "MuiSvgIcon-fontSizeSmall",
                                                                      "root": "MuiSvgIcon-root",
                                                                    }
                                                                  }
                                                                >
                                                                  <svg
                                                                    aria-hidden={true}
                                                                    className="MuiSvgIcon-root"
                                                                    focusable="false"
                                                                    viewBox="0 0 24 24"
                                                                  >
                                                                    <path
                                                                      d="M17 12h-5v5h5v-5zM16 1v2H8V1H6v2H5c-1.11 0-1.99.9-1.99 2L3 19c0 1.1.89 2 2 2h14c1.1 0 2-.9 2-2V5c0-1.1-.9-2-2-2h-1V1h-2zm3 18H5V8h14v11z"
                                                                    />
                                                                    <path
                                                                      d="M0 0h24v24H0z"
                                                                      fill="none"
                                                                    />
                                                                  </svg>
                                                                </ForwardRef(SvgIcon)>
                                                              </WithStyles(ForwardRef(SvgIcon))>
                                                            </KeyboardIcon>
                                                          </span>
                                                          <WithStyles(memo)
                                                            center={true}
                                                          >
                                                            <ForwardRef(TouchRipple)
                                                              center={true}
                                                              classes={
                                                                Object {
                                                                  "child": "MuiTouchRipple-child",
                                                                  "childLeaving": "MuiTouchRipple-childLeaving",
                                                                  "childPulsate": "MuiTouchRipple-childPulsate",
                                                                  "ripple": "MuiTouchRipple-ripple",
                                                                  "ripplePulsate": "MuiTouchRipple-ripplePulsate",
                                                                  "rippleVisible": "MuiTouchRipple-rippleVisible",
                                                                  "root": "MuiTouchRipple-root",
                                                                }
                                                              }
                                                            >
                                                              <span
                                                                className="MuiTouchRipple-root"
                                                              >
                                                                <TransitionGroup
                                                                  childFactory={[Function]}
                                                                  component={null}
                                                                  exit={true}
                                                                />
                                                              </span>
                                                            </ForwardRef(TouchRipple)>
                                                          </WithStyles(memo)>
                                                        </button>
                                                      </ForwardRef(ButtonBase)>
                                                    </WithStyles(ForwardRef(ButtonBase))>
                                                  </ForwardRef(IconButton)>
                                                </WithStyles(ForwardRef(IconButton))>
                                              </div>
                                            </ForwardRef(InputAdornment)>
                                          </WithStyles(ForwardRef(InputAdornment))>
                                        </div>
                                      </ForwardRef(InputBase)>
                                    </WithStyles(ForwardRef(InputBase))>
                                  </ForwardRef(Input)>
                                </WithStyles(ForwardRef(Input))>
                              </div>
                            </ForwardRef(FormControl)>
                          </WithStyles(ForwardRef(FormControl))>
                        </ForwardRef(TextField)>
                      </WithStyles(ForwardRef(TextField))>
                    </Rifm>
                  </KeyboardDateInput>
                  <WithStyles(ForwardRef(Popover))
                    anchorOrigin={
                      Object {
                        "horizontal": "center",
                        "vertical": "bottom",
                      }
                    }
                    onClose={[Function]}
                    open={false}
                    transformOrigin={
                      Object {
                        "horizontal": "center",
                        "vertical": "top",
                      }
                    }
                  >
                    <ForwardRef(Popover)
                      anchorOrigin={
                        Object {
                          "horizontal": "center",
                          "vertical": "bottom",
                        }
                      }
                      classes={
                        Object {
                          "paper": "MuiPopover-paper",
                          "root": "MuiPopover-root",
                        }
                      }
                      onClose={[Function]}
                      open={false}
                      transformOrigin={
                        Object {
                          "horizontal": "center",
                          "vertical": "top",
                        }
                      }
                    >
                      <ForwardRef(Modal)
                        BackdropProps={
                          Object {
                            "invisible": true,
                          }
                        }
                        className="MuiPopover-root"
                        onClose={[Function]}
                        open={false}
                      />
                    </ForwardRef(Popover)>
                  </WithStyles(ForwardRef(Popover))>
                </InlineWrapper>
              </Wrapper>
            </PickerWithState>
            <PickerWithState
              allowKeyboardControl={true}
              className="formInput"
              disableToolbar={true}
              format="dd/MM/yyyy"
              invalidDateMessage="Invalid Date Format"
              label="Max date"
              maxDate={2100-01-01T00:00:00.000Z}
              maxDateMessage="Date should not be after maximal date"
              minDate={1900-01-01T00:00:00.000Z}
              minDateMessage="Date should not be before minimal date"
              onChange={[Function]}
              openTo="date"
              value={2021-02-25T21:00:00.000Z}
              variant="inline"
              views={
                Array [
                  "year",
                  "date",
                ]
              }
            >
              <Wrapper
                DateInputProps={
                  Object {
                    "format": "dd/MM/yyyy",
                    "inputValue": "26/02/2021",
                    "onChange": [Function],
                    "openPicker": [Function],
                    "validationError": "",
                  }
                }
                InputComponent={[Function]}
                className="formInput"
                format="dd/MM/yyyy"
                label="Max date"
                onAccept={[Function]}
                onClear={[Function]}
                onDismiss={[Function]}
                onSetToday={[Function]}
                open={false}
                variant="inline"
              >
                <InlineWrapper
                  DateInputProps={
                    Object {
                      "format": "dd/MM/yyyy",
                      "inputValue": "26/02/2021",
                      "onChange": [Function],
                      "openPicker": [Function],
                      "validationError": "",
                    }
                  }
                  InputComponent={[Function]}
                  className="formInput"
                  format="dd/MM/yyyy"
                  label="Max date"
                  onAccept={[Function]}
                  onClear={[Function]}
                  onDismiss={[Function]}
                  onSetToday={[Function]}
                  open={false}
                >
                  <KeyboardDateInput
                    className="formInput"
                    format="dd/MM/yyyy"
                    inputRef={
                      Object {
                        "current": <input
                          aria-invalid="false"
                          class="MuiInputBase-input MuiInput-input MuiInputBase-inputAdornedEnd"
                          type="text"
                          value="26/02/2021"
                        />,
                      }
                    }
                    inputValue="26/02/2021"
                    keyboardIcon={<KeyboardIcon />}
                    label="Max date"
                    onChange={[Function]}
                    openPicker={[Function]}
                    validationError=""
                  >
                    <Rifm
                      format={[Function]}
                      key="__/__/____"
                      onChange={[Function]}
                      refuse={/\\[\\^\\\\d\\]\\+/gi}
                      value="26/02/2021"
                    >
                      <WithStyles(ForwardRef(TextField))
                        InputProps={
                          Object {
                            "endAdornment": <WithStyles(ForwardRef(InputAdornment))
                              position="end"
                            >
                              <WithStyles(ForwardRef(IconButton))
                                onClick={[Function]}
                              >
                                <KeyboardIcon />
                              </WithStyles(ForwardRef(IconButton))>
                            </WithStyles(ForwardRef(InputAdornment))>,
                          }
                        }
                        className="formInput"
                        error={false}
                        helperText=""
                        inputRef={
                          Object {
                            "current": <input
                              aria-invalid="false"
                              class="MuiInputBase-input MuiInput-input MuiInputBase-inputAdornedEnd"
                              type="text"
                              value="26/02/2021"
                            />,
                          }
                        }
                        label="Max date"
                        onChange={[Function]}
                        value="26/02/2021"
                      >
                        <ForwardRef(TextField)
                          InputProps={
                            Object {
                              "endAdornment": <WithStyles(ForwardRef(InputAdornment))
                                position="end"
                              >
                                <WithStyles(ForwardRef(IconButton))
                                  onClick={[Function]}
                                >
                                  <KeyboardIcon />
                                </WithStyles(ForwardRef(IconButton))>
                              </WithStyles(ForwardRef(InputAdornment))>,
                            }
                          }
                          className="formInput"
                          classes={
                            Object {
                              "root": "MuiTextField-root",
                            }
                          }
                          error={false}
                          helperText=""
                          inputRef={
                            Object {
                              "current": <input
                                aria-invalid="false"
                                class="MuiInputBase-input MuiInput-input MuiInputBase-inputAdornedEnd"
                                type="text"
                                value="26/02/2021"
                              />,
                            }
                          }
                          label="Max date"
                          onChange={[Function]}
                          value="26/02/2021"
                        >
                          <WithStyles(ForwardRef(FormControl))
                            className="MuiTextField-root formInput"
                            color="primary"
                            disabled={false}
                            error={false}
                            fullWidth={false}
                            required={false}
                            variant="standard"
                          >
                            <ForwardRef(FormControl)
                              className="MuiTextField-root formInput"
                              classes={
                                Object {
                                  "fullWidth": "MuiFormControl-fullWidth",
                                  "marginDense": "MuiFormControl-marginDense",
                                  "marginNormal": "MuiFormControl-marginNormal",
                                  "root": "MuiFormControl-root",
                                }
                              }
                              color="primary"
                              disabled={false}
                              error={false}
                              fullWidth={false}
                              required={false}
                              variant="standard"
                            >
                              <div
                                className="MuiFormControl-root MuiTextField-root formInput"
                              >
                                <WithStyles(ForwardRef(InputLabel))>
                                  <ForwardRef(InputLabel)
                                    classes={
                                      Object {
                                        "animated": "MuiInputLabel-animated",
                                        "asterisk": "MuiInputLabel-asterisk",
                                        "disabled": "Mui-disabled",
                                        "error": "Mui-error",
                                        "filled": "MuiInputLabel-filled",
                                        "focused": "Mui-focused",
                                        "formControl": "MuiInputLabel-formControl",
                                        "marginDense": "MuiInputLabel-marginDense",
                                        "outlined": "MuiInputLabel-outlined",
                                        "required": "Mui-required",
                                        "root": "MuiInputLabel-root",
                                        "shrink": "MuiInputLabel-shrink",
                                      }
                                    }
                                  >
                                    <WithStyles(ForwardRef(FormLabel))
                                      className="MuiInputLabel-root MuiInputLabel-formControl MuiInputLabel-animated MuiInputLabel-shrink"
                                      classes={
                                        Object {
                                          "asterisk": "MuiInputLabel-asterisk",
                                          "disabled": "Mui-disabled",
                                          "error": "Mui-error",
                                          "focused": "Mui-focused",
                                          "required": "Mui-required",
                                        }
                                      }
                                      data-shrink={true}
                                    >
                                      <ForwardRef(FormLabel)
                                        className="MuiInputLabel-root MuiInputLabel-formControl MuiInputLabel-animated MuiInputLabel-shrink"
                                        classes={
                                          Object {
                                            "asterisk": "MuiFormLabel-asterisk MuiInputLabel-asterisk",
                                            "colorSecondary": "MuiFormLabel-colorSecondary",
                                            "disabled": "Mui-disabled Mui-disabled",
                                            "error": "Mui-error Mui-error",
                                            "filled": "MuiFormLabel-filled",
                                            "focused": "Mui-focused Mui-focused",
                                            "required": "Mui-required Mui-required",
                                            "root": "MuiFormLabel-root",
                                          }
                                        }
                                        data-shrink={true}
                                      >
                                        <label
                                          className="MuiFormLabel-root MuiInputLabel-root MuiInputLabel-formControl MuiInputLabel-animated MuiInputLabel-shrink MuiFormLabel-filled"
                                          data-shrink={true}
                                        >
                                          Max date
                                        </label>
                                      </ForwardRef(FormLabel)>
                                    </WithStyles(ForwardRef(FormLabel))>
                                  </ForwardRef(InputLabel)>
                                </WithStyles(ForwardRef(InputLabel))>
                                <WithStyles(ForwardRef(Input))
                                  autoFocus={false}
                                  endAdornment={
                                    <WithStyles(ForwardRef(InputAdornment))
                                      position="end"
                                    >
                                      <WithStyles(ForwardRef(IconButton))
                                        onClick={[Function]}
                                      >
                                        <KeyboardIcon />
                                      </WithStyles(ForwardRef(IconButton))>
                                    </WithStyles(ForwardRef(InputAdornment))>
                                  }
                                  fullWidth={false}
                                  inputRef={
                                    Object {
                                      "current": <input
                                        aria-invalid="false"
                                        class="MuiInputBase-input MuiInput-input MuiInputBase-inputAdornedEnd"
                                        type="text"
                                        value="26/02/2021"
                                      />,
                                    }
                                  }
                                  multiline={false}
                                  onChange={[Function]}
                                  value="26/02/2021"
                                >
                                  <ForwardRef(Input)
                                    autoFocus={false}
                                    classes={
                                      Object {
                                        "colorSecondary": "MuiInput-colorSecondary",
                                        "disabled": "Mui-disabled",
                                        "error": "Mui-error",
                                        "focused": "Mui-focused",
                                        "formControl": "MuiInput-formControl",
                                        "fullWidth": "MuiInput-fullWidth",
                                        "input": "MuiInput-input",
                                        "inputMarginDense": "MuiInput-inputMarginDense",
                                        "inputMultiline": "MuiInput-inputMultiline",
                                        "inputTypeSearch": "MuiInput-inputTypeSearch",
                                        "marginDense": "MuiInput-marginDense",
                                        "multiline": "MuiInput-multiline",
                                        "root": "MuiInput-root",
                                        "underline": "MuiInput-underline",
                                      }
                                    }
                                    endAdornment={
                                      <WithStyles(ForwardRef(InputAdornment))
                                        position="end"
                                      >
                                        <WithStyles(ForwardRef(IconButton))
                                          onClick={[Function]}
                                        >
                                          <KeyboardIcon />
                                        </WithStyles(ForwardRef(IconButton))>
                                      </WithStyles(ForwardRef(InputAdornment))>
                                    }
                                    fullWidth={false}
                                    inputRef={
                                      Object {
                                        "current": <input
                                          aria-invalid="false"
                                          class="MuiInputBase-input MuiInput-input MuiInputBase-inputAdornedEnd"
                                          type="text"
                                          value="26/02/2021"
                                        />,
                                      }
                                    }
                                    multiline={false}
                                    onChange={[Function]}
                                    value="26/02/2021"
                                  >
                                    <WithStyles(ForwardRef(InputBase))
                                      autoFocus={false}
                                      classes={
                                        Object {
                                          "colorSecondary": "MuiInput-colorSecondary",
                                          "disabled": "Mui-disabled",
                                          "error": "Mui-error",
                                          "focused": "Mui-focused",
                                          "formControl": "MuiInput-formControl",
                                          "fullWidth": "MuiInput-fullWidth",
                                          "input": "MuiInput-input",
                                          "inputMarginDense": "MuiInput-inputMarginDense",
                                          "inputMultiline": "MuiInput-inputMultiline",
                                          "inputTypeSearch": "MuiInput-inputTypeSearch",
                                          "marginDense": "MuiInput-marginDense",
                                          "multiline": "MuiInput-multiline",
                                          "root": "MuiInput-root MuiInput-underline",
                                          "underline": null,
                                        }
                                      }
                                      endAdornment={
                                        <WithStyles(ForwardRef(InputAdornment))
                                          position="end"
                                        >
                                          <WithStyles(ForwardRef(IconButton))
                                            onClick={[Function]}
                                          >
                                            <KeyboardIcon />
                                          </WithStyles(ForwardRef(IconButton))>
                                        </WithStyles(ForwardRef(InputAdornment))>
                                      }
                                      fullWidth={false}
                                      inputComponent="input"
                                      inputRef={
                                        Object {
                                          "current": <input
                                            aria-invalid="false"
                                            class="MuiInputBase-input MuiInput-input MuiInputBase-inputAdornedEnd"
                                            type="text"
                                            value="26/02/2021"
                                          />,
                                        }
                                      }
                                      multiline={false}
                                      onChange={[Function]}
                                      type="text"
                                      value="26/02/2021"
                                    >
                                      <ForwardRef(InputBase)
                                        autoFocus={false}
                                        classes={
                                          Object {
                                            "adornedEnd": "MuiInputBase-adornedEnd",
                                            "adornedStart": "MuiInputBase-adornedStart",
                                            "colorSecondary": "MuiInputBase-colorSecondary MuiInput-colorSecondary",
                                            "disabled": "Mui-disabled Mui-disabled",
                                            "error": "Mui-error Mui-error",
                                            "focused": "Mui-focused Mui-focused",
                                            "formControl": "MuiInputBase-formControl MuiInput-formControl",
                                            "fullWidth": "MuiInputBase-fullWidth MuiInput-fullWidth",
                                            "input": "MuiInputBase-input MuiInput-input",
                                            "inputAdornedEnd": "MuiInputBase-inputAdornedEnd",
                                            "inputAdornedStart": "MuiInputBase-inputAdornedStart",
                                            "inputHiddenLabel": "MuiInputBase-inputHiddenLabel",
                                            "inputMarginDense": "MuiInputBase-inputMarginDense MuiInput-inputMarginDense",
                                            "inputMultiline": "MuiInputBase-inputMultiline MuiInput-inputMultiline",
                                            "inputTypeSearch": "MuiInputBase-inputTypeSearch MuiInput-inputTypeSearch",
                                            "marginDense": "MuiInputBase-marginDense MuiInput-marginDense",
                                            "multiline": "MuiInputBase-multiline MuiInput-multiline",
                                            "root": "MuiInputBase-root MuiInput-root MuiInput-underline",
                                          }
                                        }
                                        endAdornment={
                                          <WithStyles(ForwardRef(InputAdornment))
                                            position="end"
                                          >
                                            <WithStyles(ForwardRef(IconButton))
                                              onClick={[Function]}
                                            >
                                              <KeyboardIcon />
                                            </WithStyles(ForwardRef(IconButton))>
                                          </WithStyles(ForwardRef(InputAdornment))>
                                        }
                                        fullWidth={false}
                                        inputComponent="input"
                                        inputRef={
                                          Object {
                                            "current": <input
                                              aria-invalid="false"
                                              class="MuiInputBase-input MuiInput-input MuiInputBase-inputAdornedEnd"
                                              type="text"
                                              value="26/02/2021"
                                            />,
                                          }
                                        }
                                        multiline={false}
                                        onChange={[Function]}
                                        type="text"
                                        value="26/02/2021"
                                      >
                                        <div
                                          className="MuiInputBase-root MuiInput-root MuiInput-underline MuiInputBase-formControl MuiInput-formControl MuiInputBase-adornedEnd"
                                          onClick={[Function]}
                                        >
                                          <input
                                            aria-invalid={false}
                                            autoFocus={false}
                                            className="MuiInputBase-input MuiInput-input MuiInputBase-inputAdornedEnd"
                                            disabled={false}
                                            onAnimationStart={[Function]}
                                            onBlur={[Function]}
                                            onChange={[Function]}
                                            onFocus={[Function]}
                                            required={false}
                                            type="text"
                                            value="26/02/2021"
                                          />
                                          <WithStyles(ForwardRef(InputAdornment))
                                            position="end"
                                          >
                                            <ForwardRef(InputAdornment)
                                              classes={
                                                Object {
                                                  "disablePointerEvents": "MuiInputAdornment-disablePointerEvents",
                                                  "filled": "MuiInputAdornment-filled",
                                                  "hiddenLabel": "MuiInputAdornment-hiddenLabel",
                                                  "marginDense": "MuiInputAdornment-marginDense",
                                                  "positionEnd": "MuiInputAdornment-positionEnd",
                                                  "positionStart": "MuiInputAdornment-positionStart",
                                                  "root": "MuiInputAdornment-root",
                                                }
                                              }
                                              position="end"
                                            >
                                              <div
                                                className="MuiInputAdornment-root MuiInputAdornment-positionEnd"
                                              >
                                                <WithStyles(ForwardRef(IconButton))
                                                  onClick={[Function]}
                                                >
                                                  <ForwardRef(IconButton)
                                                    classes={
                                                      Object {
                                                        "colorInherit": "MuiIconButton-colorInherit",
                                                        "colorPrimary": "MuiIconButton-colorPrimary",
                                                        "colorSecondary": "MuiIconButton-colorSecondary",
                                                        "disabled": "Mui-disabled",
                                                        "edgeEnd": "MuiIconButton-edgeEnd",
                                                        "edgeStart": "MuiIconButton-edgeStart",
                                                        "label": "MuiIconButton-label",
                                                        "root": "MuiIconButton-root",
                                                        "sizeSmall": "MuiIconButton-sizeSmall",
                                                      }
                                                    }
                                                    onClick={[Function]}
                                                  >
                                                    <WithStyles(ForwardRef(ButtonBase))
                                                      centerRipple={true}
                                                      className="MuiIconButton-root"
                                                      disabled={false}
                                                      focusRipple={true}
                                                      onClick={[Function]}
                                                    >
                                                      <ForwardRef(ButtonBase)
                                                        centerRipple={true}
                                                        className="MuiIconButton-root"
                                                        classes={
                                                          Object {
                                                            "disabled": "Mui-disabled",
                                                            "focusVisible": "Mui-focusVisible",
                                                            "root": "MuiButtonBase-root",
                                                          }
                                                        }
                                                        disabled={false}
                                                        focusRipple={true}
                                                        onClick={[Function]}
                                                      >
                                                        <button
                                                          className="MuiButtonBase-root MuiIconButton-root"
                                                          disabled={false}
                                                          onBlur={[Function]}
                                                          onClick={[Function]}
                                                          onDragLeave={[Function]}
                                                          onFocus={[Function]}
                                                          onKeyDown={[Function]}
                                                          onKeyUp={[Function]}
                                                          onMouseDown={[Function]}
                                                          onMouseLeave={[Function]}
                                                          onMouseUp={[Function]}
                                                          onTouchEnd={[Function]}
                                                          onTouchMove={[Function]}
                                                          onTouchStart={[Function]}
                                                          tabIndex={0}
                                                          type="button"
                                                        >
                                                          <span
                                                            className="MuiIconButton-label"
                                                          >
                                                            <KeyboardIcon>
                                                              <WithStyles(ForwardRef(SvgIcon))>
                                                                <ForwardRef(SvgIcon)
                                                                  classes={
                                                                    Object {
                                                                      "colorAction": "MuiSvgIcon-colorAction",
                                                                      "colorDisabled": "MuiSvgIcon-colorDisabled",
                                                                      "colorError": "MuiSvgIcon-colorError",
                                                                      "colorPrimary": "MuiSvgIcon-colorPrimary",
                                                                      "colorSecondary": "MuiSvgIcon-colorSecondary",
                                                                      "fontSizeInherit": "MuiSvgIcon-fontSizeInherit",
                                                                      "fontSizeLarge": "MuiSvgIcon-fontSizeLarge",
                                                                      "fontSizeSmall": "MuiSvgIcon-fontSizeSmall",
                                                                      "root": "MuiSvgIcon-root",
                                                                    }
                                                                  }
                                                                >
                                                                  <svg
                                                                    aria-hidden={true}
                                                                    className="MuiSvgIcon-root"
                                                                    focusable="false"
                                                                    viewBox="0 0 24 24"
                                                                  >
                                                                    <path
                                                                      d="M17 12h-5v5h5v-5zM16 1v2H8V1H6v2H5c-1.11 0-1.99.9-1.99 2L3 19c0 1.1.89 2 2 2h14c1.1 0 2-.9 2-2V5c0-1.1-.9-2-2-2h-1V1h-2zm3 18H5V8h14v11z"
                                                                    />
                                                                    <path
                                                                      d="M0 0h24v24H0z"
                                                                      fill="none"
                                                                    />
                                                                  </svg>
                                                                </ForwardRef(SvgIcon)>
                                                              </WithStyles(ForwardRef(SvgIcon))>
                                                            </KeyboardIcon>
                                                          </span>
                                                          <WithStyles(memo)
                                                            center={true}
                                                          >
                                                            <ForwardRef(TouchRipple)
                                                              center={true}
                                                              classes={
                                                                Object {
                                                                  "child": "MuiTouchRipple-child",
                                                                  "childLeaving": "MuiTouchRipple-childLeaving",
                                                                  "childPulsate": "MuiTouchRipple-childPulsate",
                                                                  "ripple": "MuiTouchRipple-ripple",
                                                                  "ripplePulsate": "MuiTouchRipple-ripplePulsate",
                                                                  "rippleVisible": "MuiTouchRipple-rippleVisible",
                                                                  "root": "MuiTouchRipple-root",
                                                                }
                                                              }
                                                            >
                                                              <span
                                                                className="MuiTouchRipple-root"
                                                              >
                                                                <TransitionGroup
                                                                  childFactory={[Function]}
                                                                  component={null}
                                                                  exit={true}
                                                                />
                                                              </span>
                                                            </ForwardRef(TouchRipple)>
                                                          </WithStyles(memo)>
                                                        </button>
                                                      </ForwardRef(ButtonBase)>
                                                    </WithStyles(ForwardRef(ButtonBase))>
                                                  </ForwardRef(IconButton)>
                                                </WithStyles(ForwardRef(IconButton))>
                                              </div>
                                            </ForwardRef(InputAdornment)>
                                          </WithStyles(ForwardRef(InputAdornment))>
                                        </div>
                                      </ForwardRef(InputBase)>
                                    </WithStyles(ForwardRef(InputBase))>
                                  </ForwardRef(Input)>
                                </WithStyles(ForwardRef(Input))>
                              </div>
                            </ForwardRef(FormControl)>
                          </WithStyles(ForwardRef(FormControl))>
                        </ForwardRef(TextField)>
                      </WithStyles(ForwardRef(TextField))>
                    </Rifm>
                  </KeyboardDateInput>
                  <WithStyles(ForwardRef(Popover))
                    anchorOrigin={
                      Object {
                        "horizontal": "center",
                        "vertical": "bottom",
                      }
                    }
                    onClose={[Function]}
                    open={false}
                    transformOrigin={
                      Object {
                        "horizontal": "center",
                        "vertical": "top",
                      }
                    }
                  >
                    <ForwardRef(Popover)
                      anchorOrigin={
                        Object {
                          "horizontal": "center",
                          "vertical": "bottom",
                        }
                      }
                      classes={
                        Object {
                          "paper": "MuiPopover-paper",
                          "root": "MuiPopover-root",
                        }
                      }
                      onClose={[Function]}
                      open={false}
                      transformOrigin={
                        Object {
                          "horizontal": "center",
                          "vertical": "top",
                        }
                      }
                    >
                      <ForwardRef(Modal)
                        BackdropProps={
                          Object {
                            "invisible": true,
                          }
                        }
                        className="MuiPopover-root"
                        onClose={[Function]}
                        open={false}
                      />
                    </ForwardRef(Popover)>
                  </WithStyles(ForwardRef(Popover))>
                </InlineWrapper>
              </Wrapper>
            </PickerWithState>
          </MuiPickersUtilsProvider>
        </div>
        <div
          className="chart"
        >
          <ResponsiveBar
            animate={true}
            axisBottom={null}
            axisLeft={
              Object {
                "legendOffset": -40,
                "legendPosition": "middle",
                "tickPadding": 5,
                "tickRotation": 0,
                "tickSize": 5,
              }
            }
            axisRight={null}
            axisTop={null}
            borderColor={
              Object {
                "from": "color",
                "modifiers": Array [
                  Array [
                    "darker",
                    1.6,
                  ],
                ],
              }
            }
            colors={
              Object {
                "scheme": "pastel2",
              }
            }
            data={Array []}
            defs={
              Array [
                Object {
                  "background": "inherit",
                  "color": "#38bcb2",
                  "id": "dots",
                  "padding": 1,
                  "size": 4,
                  "stagger": true,
                  "type": "patternDots",
                },
                Object {
                  "background": "inherit",
                  "color": "#eed312",
                  "id": "lines",
                  "lineWidth": 6,
                  "rotation": -45,
                  "spacing": 10,
                  "type": "patternLines",
                },
              ]
            }
            fill={
              Array [
                Object {
                  "id": "dots",
                  "match": Object {
                    "id": "fries",
                  },
                },
                Object {
                  "id": "lines",
                  "match": Object {
                    "id": "sandwich",
                  },
                },
              ]
            }
            indexBy="catname"
            indexScale={
              Object {
                "round": true,
                "type": "band",
              }
            }
            keys={
              Array [
                "timeused",
              ]
            }
            labelSkipHeight={12}
            labelSkipWidth={12}
            labelTextColor={
              Object {
                "from": "color",
                "modifiers": Array [
                  Array [
                    "darker",
                    1.6,
                  ],
                ],
              }
            }
            layout="horizontal"
            legends={
              Array [
                Object {
                  "anchor": "bottom-right",
                  "dataFrom": "keys",
                  "direction": "column",
                  "effects": Array [
                    Object {
                      "on": "hover",
                      "style": Object {
                        "itemOpacity": 1,
                      },
                    },
                  ],
                  "itemDirection": "left-to-right",
                  "itemHeight": 20,
                  "itemOpacity": 0.85,
                  "itemWidth": 100,
                  "itemsSpacing": 2,
                  "justify": false,
                  "symbolSize": 20,
                  "translateX": 120,
                  "translateY": 0,
                },
              ]
            }
            margin={
              Object {
                "bottom": 50,
                "left": 100,
                "right": 130,
                "top": 50,
              }
            }
            motionDamping={15}
            motionStiffness={90}
            padding={0.15}
            valueScale={
              Object {
                "type": "linear",
              }
            }
          >
            <ResponsiveWrapper>
              <div
                style={
                  Object {
                    "height": "100%",
                    "width": "100%",
                  }
                }
              />
            </ResponsiveWrapper>
          </ResponsiveBar>
        </div>
      </div>
    </ForwardRef(Paper)>
  </WithStyles(ForwardRef(Paper))>
</CategoriesChart>
`;
