// Jest Snapshot v1, https://goo.gl/fbAQLP

exports[`<LayoutDrawer/> There is no error 1`] = `
Array [
  <div
    className="MuiDrawer-root MuiDrawer-docked drawer"
  >
    <WithStyles(ForwardRef(Paper))
      className="MuiDrawer-paper MuiDrawer-paperAnchorLeft MuiDrawer-paperAnchorDockedLeft"
      elevation={0}
      square={true}
    >
      <ForwardRef(Paper)
        className="MuiDrawer-paper MuiDrawer-paperAnchorLeft MuiDrawer-paperAnchorDockedLeft"
        classes={
          Object {
            "elevation0": "MuiPaper-elevation0",
            "elevation1": "MuiPaper-elevation1",
            "elevation10": "MuiPaper-elevation10",
            "elevation11": "MuiPaper-elevation11",
            "elevation12": "MuiPaper-elevation12",
            "elevation13": "MuiPaper-elevation13",
            "elevation14": "MuiPaper-elevation14",
            "elevation15": "MuiPaper-elevation15",
            "elevation16": "MuiPaper-elevation16",
            "elevation17": "MuiPaper-elevation17",
            "elevation18": "MuiPaper-elevation18",
            "elevation19": "MuiPaper-elevation19",
            "elevation2": "MuiPaper-elevation2",
            "elevation20": "MuiPaper-elevation20",
            "elevation21": "MuiPaper-elevation21",
            "elevation22": "MuiPaper-elevation22",
            "elevation23": "MuiPaper-elevation23",
            "elevation24": "MuiPaper-elevation24",
            "elevation3": "MuiPaper-elevation3",
            "elevation4": "MuiPaper-elevation4",
            "elevation5": "MuiPaper-elevation5",
            "elevation6": "MuiPaper-elevation6",
            "elevation7": "MuiPaper-elevation7",
            "elevation8": "MuiPaper-elevation8",
            "elevation9": "MuiPaper-elevation9",
            "outlined": "MuiPaper-outlined",
            "root": "MuiPaper-root",
            "rounded": "MuiPaper-rounded",
          }
        }
        elevation={0}
        square={true}
      >
        <div
          className="MuiPaper-root MuiDrawer-paper MuiDrawer-paperAnchorLeft MuiDrawer-paperAnchorDockedLeft MuiPaper-elevation0"
        >
          <WithStyles(ForwardRef(Toolbar))>
            <ForwardRef(Toolbar)
              classes={
                Object {
                  "dense": "MuiToolbar-dense",
                  "gutters": "MuiToolbar-gutters",
                  "regular": "MuiToolbar-regular",
                  "root": "MuiToolbar-root",
                }
              }
            >
              <div
                className="MuiToolbar-root MuiToolbar-regular MuiToolbar-gutters"
              />
            </ForwardRef(Toolbar)>
          </WithStyles(ForwardRef(Toolbar))>
          <WithStyles(ForwardRef(List))>
            <ForwardRef(List)
              classes={
                Object {
                  "dense": "MuiList-dense",
                  "padding": "MuiList-padding",
                  "root": "MuiList-root",
                  "subheader": "MuiList-subheader",
                }
              }
            >
              <ul
                className="MuiList-root MuiList-padding"
              >
                <WithStyles(ForwardRef(Link))
                  href="/innometrics_dashboard"
                  key="0"
                >
                  <ForwardRef(Link)
                    classes={
                      Object {
                        "button": "MuiLink-button",
                        "focusVisible": "Mui-focusVisible",
                        "root": "MuiLink-root",
                        "underlineAlways": "MuiLink-underlineAlways",
                        "underlineHover": "MuiLink-underlineHover",
                        "underlineNone": "MuiLink-underlineNone",
                      }
                    }
                    href="/innometrics_dashboard"
                  >
                    <WithStyles(ForwardRef(Typography))
                      className="MuiLink-root MuiLink-underlineHover"
                      color="primary"
                      component="a"
                      href="/innometrics_dashboard"
                      onBlur={[Function]}
                      onFocus={[Function]}
                      variant="inherit"
                    >
                      <ForwardRef(Typography)
                        className="MuiLink-root MuiLink-underlineHover"
                        classes={
                          Object {
                            "alignCenter": "MuiTypography-alignCenter",
                            "alignJustify": "MuiTypography-alignJustify",
                            "alignLeft": "MuiTypography-alignLeft",
                            "alignRight": "MuiTypography-alignRight",
                            "body1": "MuiTypography-body1",
                            "body2": "MuiTypography-body2",
                            "button": "MuiTypography-button",
                            "caption": "MuiTypography-caption",
                            "colorError": "MuiTypography-colorError",
                            "colorInherit": "MuiTypography-colorInherit",
                            "colorPrimary": "MuiTypography-colorPrimary",
                            "colorSecondary": "MuiTypography-colorSecondary",
                            "colorTextPrimary": "MuiTypography-colorTextPrimary",
                            "colorTextSecondary": "MuiTypography-colorTextSecondary",
                            "displayBlock": "MuiTypography-displayBlock",
                            "displayInline": "MuiTypography-displayInline",
                            "gutterBottom": "MuiTypography-gutterBottom",
                            "h1": "MuiTypography-h1",
                            "h2": "MuiTypography-h2",
                            "h3": "MuiTypography-h3",
                            "h4": "MuiTypography-h4",
                            "h5": "MuiTypography-h5",
                            "h6": "MuiTypography-h6",
                            "noWrap": "MuiTypography-noWrap",
                            "overline": "MuiTypography-overline",
                            "paragraph": "MuiTypography-paragraph",
                            "root": "MuiTypography-root",
                            "srOnly": "MuiTypography-srOnly",
                            "subtitle1": "MuiTypography-subtitle1",
                            "subtitle2": "MuiTypography-subtitle2",
                          }
                        }
                        color="primary"
                        component="a"
                        href="/innometrics_dashboard"
                        onBlur={[Function]}
                        onFocus={[Function]}
                        variant="inherit"
                      >
                        <a
                          className="MuiTypography-root MuiLink-root MuiLink-underlineHover MuiTypography-colorPrimary"
                          href="/innometrics_dashboard"
                          onBlur={[Function]}
                          onFocus={[Function]}
                        >
                          <WithStyles(ForwardRef(ListItem))
                            button={true}
                          >
                            <ForwardRef(ListItem)
                              button={true}
                              classes={
                                Object {
                                  "alignItemsFlexStart": "MuiListItem-alignItemsFlexStart",
                                  "button": "MuiListItem-button",
                                  "container": "MuiListItem-container",
                                  "dense": "MuiListItem-dense",
                                  "disabled": "Mui-disabled",
                                  "divider": "MuiListItem-divider",
                                  "focusVisible": "Mui-focusVisible",
                                  "gutters": "MuiListItem-gutters",
                                  "root": "MuiListItem-root",
                                  "secondaryAction": "MuiListItem-secondaryAction",
                                  "selected": "Mui-selected",
                                }
                              }
                            >
                              <WithStyles(ForwardRef(ButtonBase))
                                className="MuiListItem-root MuiListItem-gutters MuiListItem-button"
                                component="div"
                                disabled={false}
                                focusVisibleClassName="Mui-focusVisible"
                              >
                                <ForwardRef(ButtonBase)
                                  className="MuiListItem-root MuiListItem-gutters MuiListItem-button"
                                  classes={
                                    Object {
                                      "disabled": "Mui-disabled",
                                      "focusVisible": "Mui-focusVisible",
                                      "root": "MuiButtonBase-root",
                                    }
                                  }
                                  component="div"
                                  disabled={false}
                                  focusVisibleClassName="Mui-focusVisible"
                                >
                                  <div
                                    aria-disabled={false}
                                    className="MuiButtonBase-root MuiListItem-root MuiListItem-gutters MuiListItem-button"
                                    onBlur={[Function]}
                                    onDragLeave={[Function]}
                                    onFocus={[Function]}
                                    onKeyDown={[Function]}
                                    onKeyUp={[Function]}
                                    onMouseDown={[Function]}
                                    onMouseLeave={[Function]}
                                    onMouseUp={[Function]}
                                    onTouchEnd={[Function]}
                                    onTouchMove={[Function]}
                                    onTouchStart={[Function]}
                                    role="button"
                                    tabIndex={0}
                                  >
                                    <WithStyles(ForwardRef(ListItemIcon))
                                      key=".0"
                                    >
                                      <ForwardRef(ListItemIcon)
                                        classes={
                                          Object {
                                            "alignItemsFlexStart": "MuiListItemIcon-alignItemsFlexStart",
                                            "root": "MuiListItemIcon-root",
                                          }
                                        }
                                      >
                                        <div
                                          className="MuiListItemIcon-root"
                                        >
                                          <ForwardRef(MoveToInboxIcon)>
                                            <WithStyles(ForwardRef(SvgIcon))>
                                              <ForwardRef(SvgIcon)
                                                classes={
                                                  Object {
                                                    "colorAction": "MuiSvgIcon-colorAction",
                                                    "colorDisabled": "MuiSvgIcon-colorDisabled",
                                                    "colorError": "MuiSvgIcon-colorError",
                                                    "colorPrimary": "MuiSvgIcon-colorPrimary",
                                                    "colorSecondary": "MuiSvgIcon-colorSecondary",
                                                    "fontSizeInherit": "MuiSvgIcon-fontSizeInherit",
                                                    "fontSizeLarge": "MuiSvgIcon-fontSizeLarge",
                                                    "fontSizeSmall": "MuiSvgIcon-fontSizeSmall",
                                                    "root": "MuiSvgIcon-root",
                                                  }
                                                }
                                              >
                                                <svg
                                                  aria-hidden={true}
                                                  className="MuiSvgIcon-root"
                                                  focusable="false"
                                                  viewBox="0 0 24 24"
                                                >
                                                  <path
                                                    d="M19 3H4.99c-1.11 0-1.98.9-1.98 2L3 19c0 1.1.88 2 1.99 2H19c1.1 0 2-.9 2-2V5c0-1.1-.9-2-2-2zm0 12h-4c0 1.66-1.35 3-3 3s-3-1.34-3-3H4.99V5H19v10zm-3-5h-2V7h-4v3H8l4 4 4-4z"
                                                  />
                                                </svg>
                                              </ForwardRef(SvgIcon)>
                                            </WithStyles(ForwardRef(SvgIcon))>
                                          </ForwardRef(MoveToInboxIcon)>
                                        </div>
                                      </ForwardRef(ListItemIcon)>
                                    </WithStyles(ForwardRef(ListItemIcon))>
                                    <WithStyles(ForwardRef(ListItemText))
                                      key=".1"
                                      primary="Main"
                                    >
                                      <ForwardRef(ListItemText)
                                        classes={
                                          Object {
                                            "dense": "MuiListItemText-dense",
                                            "inset": "MuiListItemText-inset",
                                            "multiline": "MuiListItemText-multiline",
                                            "primary": "MuiListItemText-primary",
                                            "root": "MuiListItemText-root",
                                            "secondary": "MuiListItemText-secondary",
                                          }
                                        }
                                        primary="Main"
                                      >
                                        <div
                                          className="MuiListItemText-root"
                                        >
                                          <WithStyles(ForwardRef(Typography))
                                            className="MuiListItemText-primary"
                                            component="span"
                                            display="block"
                                            variant="body1"
                                          >
                                            <ForwardRef(Typography)
                                              className="MuiListItemText-primary"
                                              classes={
                                                Object {
                                                  "alignCenter": "MuiTypography-alignCenter",
                                                  "alignJustify": "MuiTypography-alignJustify",
                                                  "alignLeft": "MuiTypography-alignLeft",
                                                  "alignRight": "MuiTypography-alignRight",
                                                  "body1": "MuiTypography-body1",
                                                  "body2": "MuiTypography-body2",
                                                  "button": "MuiTypography-button",
                                                  "caption": "MuiTypography-caption",
                                                  "colorError": "MuiTypography-colorError",
                                                  "colorInherit": "MuiTypography-colorInherit",
                                                  "colorPrimary": "MuiTypography-colorPrimary",
                                                  "colorSecondary": "MuiTypography-colorSecondary",
                                                  "colorTextPrimary": "MuiTypography-colorTextPrimary",
                                                  "colorTextSecondary": "MuiTypography-colorTextSecondary",
                                                  "displayBlock": "MuiTypography-displayBlock",
                                                  "displayInline": "MuiTypography-displayInline",
                                                  "gutterBottom": "MuiTypography-gutterBottom",
                                                  "h1": "MuiTypography-h1",
                                                  "h2": "MuiTypography-h2",
                                                  "h3": "MuiTypography-h3",
                                                  "h4": "MuiTypography-h4",
                                                  "h5": "MuiTypography-h5",
                                                  "h6": "MuiTypography-h6",
                                                  "noWrap": "MuiTypography-noWrap",
                                                  "overline": "MuiTypography-overline",
                                                  "paragraph": "MuiTypography-paragraph",
                                                  "root": "MuiTypography-root",
                                                  "srOnly": "MuiTypography-srOnly",
                                                  "subtitle1": "MuiTypography-subtitle1",
                                                  "subtitle2": "MuiTypography-subtitle2",
                                                }
                                              }
                                              component="span"
                                              display="block"
                                              variant="body1"
                                            >
                                              <span
                                                className="MuiTypography-root MuiListItemText-primary MuiTypography-body1 MuiTypography-displayBlock"
                                              >
                                                Main
                                              </span>
                                            </ForwardRef(Typography)>
                                          </WithStyles(ForwardRef(Typography))>
                                        </div>
                                      </ForwardRef(ListItemText)>
                                    </WithStyles(ForwardRef(ListItemText))>
                                    <WithStyles(memo)
                                      center={false}
                                    >
                                      <ForwardRef(TouchRipple)
                                        center={false}
                                        classes={
                                          Object {
                                            "child": "MuiTouchRipple-child",
                                            "childLeaving": "MuiTouchRipple-childLeaving",
                                            "childPulsate": "MuiTouchRipple-childPulsate",
                                            "ripple": "MuiTouchRipple-ripple",
                                            "ripplePulsate": "MuiTouchRipple-ripplePulsate",
                                            "rippleVisible": "MuiTouchRipple-rippleVisible",
                                            "root": "MuiTouchRipple-root",
                                          }
                                        }
                                      >
                                        <span
                                          className="MuiTouchRipple-root"
                                        >
                                          <TransitionGroup
                                            childFactory={[Function]}
                                            component={null}
                                            exit={true}
                                          />
                                        </span>
                                      </ForwardRef(TouchRipple)>
                                    </WithStyles(memo)>
                                  </div>
                                </ForwardRef(ButtonBase)>
                              </WithStyles(ForwardRef(ButtonBase))>
                            </ForwardRef(ListItem)>
                          </WithStyles(ForwardRef(ListItem))>
                        </a>
                      </ForwardRef(Typography)>
                    </WithStyles(ForwardRef(Typography))>
                  </ForwardRef(Link)>
                </WithStyles(ForwardRef(Link))>
                <WithStyles(ForwardRef(Link))
                  href="/innometrics_dashboard/forms"
                  key="1"
                >
                  <ForwardRef(Link)
                    classes={
                      Object {
                        "button": "MuiLink-button",
                        "focusVisible": "Mui-focusVisible",
                        "root": "MuiLink-root",
                        "underlineAlways": "MuiLink-underlineAlways",
                        "underlineHover": "MuiLink-underlineHover",
                        "underlineNone": "MuiLink-underlineNone",
                      }
                    }
                    href="/innometrics_dashboard/forms"
                  >
                    <WithStyles(ForwardRef(Typography))
                      className="MuiLink-root MuiLink-underlineHover"
                      color="primary"
                      component="a"
                      href="/innometrics_dashboard/forms"
                      onBlur={[Function]}
                      onFocus={[Function]}
                      variant="inherit"
                    >
                      <ForwardRef(Typography)
                        className="MuiLink-root MuiLink-underlineHover"
                        classes={
                          Object {
                            "alignCenter": "MuiTypography-alignCenter",
                            "alignJustify": "MuiTypography-alignJustify",
                            "alignLeft": "MuiTypography-alignLeft",
                            "alignRight": "MuiTypography-alignRight",
                            "body1": "MuiTypography-body1",
                            "body2": "MuiTypography-body2",
                            "button": "MuiTypography-button",
                            "caption": "MuiTypography-caption",
                            "colorError": "MuiTypography-colorError",
                            "colorInherit": "MuiTypography-colorInherit",
                            "colorPrimary": "MuiTypography-colorPrimary",
                            "colorSecondary": "MuiTypography-colorSecondary",
                            "colorTextPrimary": "MuiTypography-colorTextPrimary",
                            "colorTextSecondary": "MuiTypography-colorTextSecondary",
                            "displayBlock": "MuiTypography-displayBlock",
                            "displayInline": "MuiTypography-displayInline",
                            "gutterBottom": "MuiTypography-gutterBottom",
                            "h1": "MuiTypography-h1",
                            "h2": "MuiTypography-h2",
                            "h3": "MuiTypography-h3",
                            "h4": "MuiTypography-h4",
                            "h5": "MuiTypography-h5",
                            "h6": "MuiTypography-h6",
                            "noWrap": "MuiTypography-noWrap",
                            "overline": "MuiTypography-overline",
                            "paragraph": "MuiTypography-paragraph",
                            "root": "MuiTypography-root",
                            "srOnly": "MuiTypography-srOnly",
                            "subtitle1": "MuiTypography-subtitle1",
                            "subtitle2": "MuiTypography-subtitle2",
                          }
                        }
                        color="primary"
                        component="a"
                        href="/innometrics_dashboard/forms"
                        onBlur={[Function]}
                        onFocus={[Function]}
                        variant="inherit"
                      >
                        <a
                          className="MuiTypography-root MuiLink-root MuiLink-underlineHover MuiTypography-colorPrimary"
                          href="/innometrics_dashboard/forms"
                          onBlur={[Function]}
                          onFocus={[Function]}
                        >
                          <WithStyles(ForwardRef(ListItem))
                            button={true}
                          >
                            <ForwardRef(ListItem)
                              button={true}
                              classes={
                                Object {
                                  "alignItemsFlexStart": "MuiListItem-alignItemsFlexStart",
                                  "button": "MuiListItem-button",
                                  "container": "MuiListItem-container",
                                  "dense": "MuiListItem-dense",
                                  "disabled": "Mui-disabled",
                                  "divider": "MuiListItem-divider",
                                  "focusVisible": "Mui-focusVisible",
                                  "gutters": "MuiListItem-gutters",
                                  "root": "MuiListItem-root",
                                  "secondaryAction": "MuiListItem-secondaryAction",
                                  "selected": "Mui-selected",
                                }
                              }
                            >
                              <WithStyles(ForwardRef(ButtonBase))
                                className="MuiListItem-root MuiListItem-gutters MuiListItem-button"
                                component="div"
                                disabled={false}
                                focusVisibleClassName="Mui-focusVisible"
                              >
                                <ForwardRef(ButtonBase)
                                  className="MuiListItem-root MuiListItem-gutters MuiListItem-button"
                                  classes={
                                    Object {
                                      "disabled": "Mui-disabled",
                                      "focusVisible": "Mui-focusVisible",
                                      "root": "MuiButtonBase-root",
                                    }
                                  }
                                  component="div"
                                  disabled={false}
                                  focusVisibleClassName="Mui-focusVisible"
                                >
                                  <div
                                    aria-disabled={false}
                                    className="MuiButtonBase-root MuiListItem-root MuiListItem-gutters MuiListItem-button"
                                    onBlur={[Function]}
                                    onDragLeave={[Function]}
                                    onFocus={[Function]}
                                    onKeyDown={[Function]}
                                    onKeyUp={[Function]}
                                    onMouseDown={[Function]}
                                    onMouseLeave={[Function]}
                                    onMouseUp={[Function]}
                                    onTouchEnd={[Function]}
                                    onTouchMove={[Function]}
                                    onTouchStart={[Function]}
                                    role="button"
                                    tabIndex={0}
                                  >
                                    <WithStyles(ForwardRef(ListItemIcon))
                                      key=".0"
                                    >
                                      <ForwardRef(ListItemIcon)
                                        classes={
                                          Object {
                                            "alignItemsFlexStart": "MuiListItemIcon-alignItemsFlexStart",
                                            "root": "MuiListItemIcon-root",
                                          }
                                        }
                                      >
                                        <div
                                          className="MuiListItemIcon-root"
                                        >
                                          <ForwardRef(MoveToInboxIcon)>
                                            <WithStyles(ForwardRef(SvgIcon))>
                                              <ForwardRef(SvgIcon)
                                                classes={
                                                  Object {
                                                    "colorAction": "MuiSvgIcon-colorAction",
                                                    "colorDisabled": "MuiSvgIcon-colorDisabled",
                                                    "colorError": "MuiSvgIcon-colorError",
                                                    "colorPrimary": "MuiSvgIcon-colorPrimary",
                                                    "colorSecondary": "MuiSvgIcon-colorSecondary",
                                                    "fontSizeInherit": "MuiSvgIcon-fontSizeInherit",
                                                    "fontSizeLarge": "MuiSvgIcon-fontSizeLarge",
                                                    "fontSizeSmall": "MuiSvgIcon-fontSizeSmall",
                                                    "root": "MuiSvgIcon-root",
                                                  }
                                                }
                                              >
                                                <svg
                                                  aria-hidden={true}
                                                  className="MuiSvgIcon-root"
                                                  focusable="false"
                                                  viewBox="0 0 24 24"
                                                >
                                                  <path
                                                    d="M19 3H4.99c-1.11 0-1.98.9-1.98 2L3 19c0 1.1.88 2 1.99 2H19c1.1 0 2-.9 2-2V5c0-1.1-.9-2-2-2zm0 12h-4c0 1.66-1.35 3-3 3s-3-1.34-3-3H4.99V5H19v10zm-3-5h-2V7h-4v3H8l4 4 4-4z"
                                                  />
                                                </svg>
                                              </ForwardRef(SvgIcon)>
                                            </WithStyles(ForwardRef(SvgIcon))>
                                          </ForwardRef(MoveToInboxIcon)>
                                        </div>
                                      </ForwardRef(ListItemIcon)>
                                    </WithStyles(ForwardRef(ListItemIcon))>
                                    <WithStyles(ForwardRef(ListItemText))
                                      key=".1"
                                      primary="Forms"
                                    >
                                      <ForwardRef(ListItemText)
                                        classes={
                                          Object {
                                            "dense": "MuiListItemText-dense",
                                            "inset": "MuiListItemText-inset",
                                            "multiline": "MuiListItemText-multiline",
                                            "primary": "MuiListItemText-primary",
                                            "root": "MuiListItemText-root",
                                            "secondary": "MuiListItemText-secondary",
                                          }
                                        }
                                        primary="Forms"
                                      >
                                        <div
                                          className="MuiListItemText-root"
                                        >
                                          <WithStyles(ForwardRef(Typography))
                                            className="MuiListItemText-primary"
                                            component="span"
                                            display="block"
                                            variant="body1"
                                          >
                                            <ForwardRef(Typography)
                                              className="MuiListItemText-primary"
                                              classes={
                                                Object {
                                                  "alignCenter": "MuiTypography-alignCenter",
                                                  "alignJustify": "MuiTypography-alignJustify",
                                                  "alignLeft": "MuiTypography-alignLeft",
                                                  "alignRight": "MuiTypography-alignRight",
                                                  "body1": "MuiTypography-body1",
                                                  "body2": "MuiTypography-body2",
                                                  "button": "MuiTypography-button",
                                                  "caption": "MuiTypography-caption",
                                                  "colorError": "MuiTypography-colorError",
                                                  "colorInherit": "MuiTypography-colorInherit",
                                                  "colorPrimary": "MuiTypography-colorPrimary",
                                                  "colorSecondary": "MuiTypography-colorSecondary",
                                                  "colorTextPrimary": "MuiTypography-colorTextPrimary",
                                                  "colorTextSecondary": "MuiTypography-colorTextSecondary",
                                                  "displayBlock": "MuiTypography-displayBlock",
                                                  "displayInline": "MuiTypography-displayInline",
                                                  "gutterBottom": "MuiTypography-gutterBottom",
                                                  "h1": "MuiTypography-h1",
                                                  "h2": "MuiTypography-h2",
                                                  "h3": "MuiTypography-h3",
                                                  "h4": "MuiTypography-h4",
                                                  "h5": "MuiTypography-h5",
                                                  "h6": "MuiTypography-h6",
                                                  "noWrap": "MuiTypography-noWrap",
                                                  "overline": "MuiTypography-overline",
                                                  "paragraph": "MuiTypography-paragraph",
                                                  "root": "MuiTypography-root",
                                                  "srOnly": "MuiTypography-srOnly",
                                                  "subtitle1": "MuiTypography-subtitle1",
                                                  "subtitle2": "MuiTypography-subtitle2",
                                                }
                                              }
                                              component="span"
                                              display="block"
                                              variant="body1"
                                            >
                                              <span
                                                className="MuiTypography-root MuiListItemText-primary MuiTypography-body1 MuiTypography-displayBlock"
                                              >
                                                Forms
                                              </span>
                                            </ForwardRef(Typography)>
                                          </WithStyles(ForwardRef(Typography))>
                                        </div>
                                      </ForwardRef(ListItemText)>
                                    </WithStyles(ForwardRef(ListItemText))>
                                    <WithStyles(memo)
                                      center={false}
                                    >
                                      <ForwardRef(TouchRipple)
                                        center={false}
                                        classes={
                                          Object {
                                            "child": "MuiTouchRipple-child",
                                            "childLeaving": "MuiTouchRipple-childLeaving",
                                            "childPulsate": "MuiTouchRipple-childPulsate",
                                            "ripple": "MuiTouchRipple-ripple",
                                            "ripplePulsate": "MuiTouchRipple-ripplePulsate",
                                            "rippleVisible": "MuiTouchRipple-rippleVisible",
                                            "root": "MuiTouchRipple-root",
                                          }
                                        }
                                      >
                                        <span
                                          className="MuiTouchRipple-root"
                                        >
                                          <TransitionGroup
                                            childFactory={[Function]}
                                            component={null}
                                            exit={true}
                                          />
                                        </span>
                                      </ForwardRef(TouchRipple)>
                                    </WithStyles(memo)>
                                  </div>
                                </ForwardRef(ButtonBase)>
                              </WithStyles(ForwardRef(ButtonBase))>
                            </ForwardRef(ListItem)>
                          </WithStyles(ForwardRef(ListItem))>
                        </a>
                      </ForwardRef(Typography)>
                    </WithStyles(ForwardRef(Typography))>
                  </ForwardRef(Link)>
                </WithStyles(ForwardRef(Link))>
              </ul>
            </ForwardRef(List)>
          </WithStyles(ForwardRef(List))>
        </div>
      </ForwardRef(Paper)>
    </WithStyles(ForwardRef(Paper))>
  </div>,
  <div
    className="MuiPaper-root MuiDrawer-paper MuiDrawer-paperAnchorLeft MuiDrawer-paperAnchorDockedLeft MuiPaper-elevation0"
  >
    <WithStyles(ForwardRef(Toolbar))>
      <ForwardRef(Toolbar)
        classes={
          Object {
            "dense": "MuiToolbar-dense",
            "gutters": "MuiToolbar-gutters",
            "regular": "MuiToolbar-regular",
            "root": "MuiToolbar-root",
          }
        }
      >
        <div
          className="MuiToolbar-root MuiToolbar-regular MuiToolbar-gutters"
        />
      </ForwardRef(Toolbar)>
    </WithStyles(ForwardRef(Toolbar))>
    <WithStyles(ForwardRef(List))>
      <ForwardRef(List)
        classes={
          Object {
            "dense": "MuiList-dense",
            "padding": "MuiList-padding",
            "root": "MuiList-root",
            "subheader": "MuiList-subheader",
          }
        }
      >
        <ul
          className="MuiList-root MuiList-padding"
        >
          <WithStyles(ForwardRef(Link))
            href="/innometrics_dashboard"
            key="0"
          >
            <ForwardRef(Link)
              classes={
                Object {
                  "button": "MuiLink-button",
                  "focusVisible": "Mui-focusVisible",
                  "root": "MuiLink-root",
                  "underlineAlways": "MuiLink-underlineAlways",
                  "underlineHover": "MuiLink-underlineHover",
                  "underlineNone": "MuiLink-underlineNone",
                }
              }
              href="/innometrics_dashboard"
            >
              <WithStyles(ForwardRef(Typography))
                className="MuiLink-root MuiLink-underlineHover"
                color="primary"
                component="a"
                href="/innometrics_dashboard"
                onBlur={[Function]}
                onFocus={[Function]}
                variant="inherit"
              >
                <ForwardRef(Typography)
                  className="MuiLink-root MuiLink-underlineHover"
                  classes={
                    Object {
                      "alignCenter": "MuiTypography-alignCenter",
                      "alignJustify": "MuiTypography-alignJustify",
                      "alignLeft": "MuiTypography-alignLeft",
                      "alignRight": "MuiTypography-alignRight",
                      "body1": "MuiTypography-body1",
                      "body2": "MuiTypography-body2",
                      "button": "MuiTypography-button",
                      "caption": "MuiTypography-caption",
                      "colorError": "MuiTypography-colorError",
                      "colorInherit": "MuiTypography-colorInherit",
                      "colorPrimary": "MuiTypography-colorPrimary",
                      "colorSecondary": "MuiTypography-colorSecondary",
                      "colorTextPrimary": "MuiTypography-colorTextPrimary",
                      "colorTextSecondary": "MuiTypography-colorTextSecondary",
                      "displayBlock": "MuiTypography-displayBlock",
                      "displayInline": "MuiTypography-displayInline",
                      "gutterBottom": "MuiTypography-gutterBottom",
                      "h1": "MuiTypography-h1",
                      "h2": "MuiTypography-h2",
                      "h3": "MuiTypography-h3",
                      "h4": "MuiTypography-h4",
                      "h5": "MuiTypography-h5",
                      "h6": "MuiTypography-h6",
                      "noWrap": "MuiTypography-noWrap",
                      "overline": "MuiTypography-overline",
                      "paragraph": "MuiTypography-paragraph",
                      "root": "MuiTypography-root",
                      "srOnly": "MuiTypography-srOnly",
                      "subtitle1": "MuiTypography-subtitle1",
                      "subtitle2": "MuiTypography-subtitle2",
                    }
                  }
                  color="primary"
                  component="a"
                  href="/innometrics_dashboard"
                  onBlur={[Function]}
                  onFocus={[Function]}
                  variant="inherit"
                >
                  <a
                    className="MuiTypography-root MuiLink-root MuiLink-underlineHover MuiTypography-colorPrimary"
                    href="/innometrics_dashboard"
                    onBlur={[Function]}
                    onFocus={[Function]}
                  >
                    <WithStyles(ForwardRef(ListItem))
                      button={true}
                    >
                      <ForwardRef(ListItem)
                        button={true}
                        classes={
                          Object {
                            "alignItemsFlexStart": "MuiListItem-alignItemsFlexStart",
                            "button": "MuiListItem-button",
                            "container": "MuiListItem-container",
                            "dense": "MuiListItem-dense",
                            "disabled": "Mui-disabled",
                            "divider": "MuiListItem-divider",
                            "focusVisible": "Mui-focusVisible",
                            "gutters": "MuiListItem-gutters",
                            "root": "MuiListItem-root",
                            "secondaryAction": "MuiListItem-secondaryAction",
                            "selected": "Mui-selected",
                          }
                        }
                      >
                        <WithStyles(ForwardRef(ButtonBase))
                          className="MuiListItem-root MuiListItem-gutters MuiListItem-button"
                          component="div"
                          disabled={false}
                          focusVisibleClassName="Mui-focusVisible"
                        >
                          <ForwardRef(ButtonBase)
                            className="MuiListItem-root MuiListItem-gutters MuiListItem-button"
                            classes={
                              Object {
                                "disabled": "Mui-disabled",
                                "focusVisible": "Mui-focusVisible",
                                "root": "MuiButtonBase-root",
                              }
                            }
                            component="div"
                            disabled={false}
                            focusVisibleClassName="Mui-focusVisible"
                          >
                            <div
                              aria-disabled={false}
                              className="MuiButtonBase-root MuiListItem-root MuiListItem-gutters MuiListItem-button"
                              onBlur={[Function]}
                              onDragLeave={[Function]}
                              onFocus={[Function]}
                              onKeyDown={[Function]}
                              onKeyUp={[Function]}
                              onMouseDown={[Function]}
                              onMouseLeave={[Function]}
                              onMouseUp={[Function]}
                              onTouchEnd={[Function]}
                              onTouchMove={[Function]}
                              onTouchStart={[Function]}
                              role="button"
                              tabIndex={0}
                            >
                              <WithStyles(ForwardRef(ListItemIcon))
                                key=".0"
                              >
                                <ForwardRef(ListItemIcon)
                                  classes={
                                    Object {
                                      "alignItemsFlexStart": "MuiListItemIcon-alignItemsFlexStart",
                                      "root": "MuiListItemIcon-root",
                                    }
                                  }
                                >
                                  <div
                                    className="MuiListItemIcon-root"
                                  >
                                    <ForwardRef(MoveToInboxIcon)>
                                      <WithStyles(ForwardRef(SvgIcon))>
                                        <ForwardRef(SvgIcon)
                                          classes={
                                            Object {
                                              "colorAction": "MuiSvgIcon-colorAction",
                                              "colorDisabled": "MuiSvgIcon-colorDisabled",
                                              "colorError": "MuiSvgIcon-colorError",
                                              "colorPrimary": "MuiSvgIcon-colorPrimary",
                                              "colorSecondary": "MuiSvgIcon-colorSecondary",
                                              "fontSizeInherit": "MuiSvgIcon-fontSizeInherit",
                                              "fontSizeLarge": "MuiSvgIcon-fontSizeLarge",
                                              "fontSizeSmall": "MuiSvgIcon-fontSizeSmall",
                                              "root": "MuiSvgIcon-root",
                                            }
                                          }
                                        >
                                          <svg
                                            aria-hidden={true}
                                            className="MuiSvgIcon-root"
                                            focusable="false"
                                            viewBox="0 0 24 24"
                                          >
                                            <path
                                              d="M19 3H4.99c-1.11 0-1.98.9-1.98 2L3 19c0 1.1.88 2 1.99 2H19c1.1 0 2-.9 2-2V5c0-1.1-.9-2-2-2zm0 12h-4c0 1.66-1.35 3-3 3s-3-1.34-3-3H4.99V5H19v10zm-3-5h-2V7h-4v3H8l4 4 4-4z"
                                            />
                                          </svg>
                                        </ForwardRef(SvgIcon)>
                                      </WithStyles(ForwardRef(SvgIcon))>
                                    </ForwardRef(MoveToInboxIcon)>
                                  </div>
                                </ForwardRef(ListItemIcon)>
                              </WithStyles(ForwardRef(ListItemIcon))>
                              <WithStyles(ForwardRef(ListItemText))
                                key=".1"
                                primary="Main"
                              >
                                <ForwardRef(ListItemText)
                                  classes={
                                    Object {
                                      "dense": "MuiListItemText-dense",
                                      "inset": "MuiListItemText-inset",
                                      "multiline": "MuiListItemText-multiline",
                                      "primary": "MuiListItemText-primary",
                                      "root": "MuiListItemText-root",
                                      "secondary": "MuiListItemText-secondary",
                                    }
                                  }
                                  primary="Main"
                                >
                                  <div
                                    className="MuiListItemText-root"
                                  >
                                    <WithStyles(ForwardRef(Typography))
                                      className="MuiListItemText-primary"
                                      component="span"
                                      display="block"
                                      variant="body1"
                                    >
                                      <ForwardRef(Typography)
                                        className="MuiListItemText-primary"
                                        classes={
                                          Object {
                                            "alignCenter": "MuiTypography-alignCenter",
                                            "alignJustify": "MuiTypography-alignJustify",
                                            "alignLeft": "MuiTypography-alignLeft",
                                            "alignRight": "MuiTypography-alignRight",
                                            "body1": "MuiTypography-body1",
                                            "body2": "MuiTypography-body2",
                                            "button": "MuiTypography-button",
                                            "caption": "MuiTypography-caption",
                                            "colorError": "MuiTypography-colorError",
                                            "colorInherit": "MuiTypography-colorInherit",
                                            "colorPrimary": "MuiTypography-colorPrimary",
                                            "colorSecondary": "MuiTypography-colorSecondary",
                                            "colorTextPrimary": "MuiTypography-colorTextPrimary",
                                            "colorTextSecondary": "MuiTypography-colorTextSecondary",
                                            "displayBlock": "MuiTypography-displayBlock",
                                            "displayInline": "MuiTypography-displayInline",
                                            "gutterBottom": "MuiTypography-gutterBottom",
                                            "h1": "MuiTypography-h1",
                                            "h2": "MuiTypography-h2",
                                            "h3": "MuiTypography-h3",
                                            "h4": "MuiTypography-h4",
                                            "h5": "MuiTypography-h5",
                                            "h6": "MuiTypography-h6",
                                            "noWrap": "MuiTypography-noWrap",
                                            "overline": "MuiTypography-overline",
                                            "paragraph": "MuiTypography-paragraph",
                                            "root": "MuiTypography-root",
                                            "srOnly": "MuiTypography-srOnly",
                                            "subtitle1": "MuiTypography-subtitle1",
                                            "subtitle2": "MuiTypography-subtitle2",
                                          }
                                        }
                                        component="span"
                                        display="block"
                                        variant="body1"
                                      >
                                        <span
                                          className="MuiTypography-root MuiListItemText-primary MuiTypography-body1 MuiTypography-displayBlock"
                                        >
                                          Main
                                        </span>
                                      </ForwardRef(Typography)>
                                    </WithStyles(ForwardRef(Typography))>
                                  </div>
                                </ForwardRef(ListItemText)>
                              </WithStyles(ForwardRef(ListItemText))>
                              <WithStyles(memo)
                                center={false}
                              >
                                <ForwardRef(TouchRipple)
                                  center={false}
                                  classes={
                                    Object {
                                      "child": "MuiTouchRipple-child",
                                      "childLeaving": "MuiTouchRipple-childLeaving",
                                      "childPulsate": "MuiTouchRipple-childPulsate",
                                      "ripple": "MuiTouchRipple-ripple",
                                      "ripplePulsate": "MuiTouchRipple-ripplePulsate",
                                      "rippleVisible": "MuiTouchRipple-rippleVisible",
                                      "root": "MuiTouchRipple-root",
                                    }
                                  }
                                >
                                  <span
                                    className="MuiTouchRipple-root"
                                  >
                                    <TransitionGroup
                                      childFactory={[Function]}
                                      component={null}
                                      exit={true}
                                    />
                                  </span>
                                </ForwardRef(TouchRipple)>
                              </WithStyles(memo)>
                            </div>
                          </ForwardRef(ButtonBase)>
                        </WithStyles(ForwardRef(ButtonBase))>
                      </ForwardRef(ListItem)>
                    </WithStyles(ForwardRef(ListItem))>
                  </a>
                </ForwardRef(Typography)>
              </WithStyles(ForwardRef(Typography))>
            </ForwardRef(Link)>
          </WithStyles(ForwardRef(Link))>
          <WithStyles(ForwardRef(Link))
            href="/innometrics_dashboard/forms"
            key="1"
          >
            <ForwardRef(Link)
              classes={
                Object {
                  "button": "MuiLink-button",
                  "focusVisible": "Mui-focusVisible",
                  "root": "MuiLink-root",
                  "underlineAlways": "MuiLink-underlineAlways",
                  "underlineHover": "MuiLink-underlineHover",
                  "underlineNone": "MuiLink-underlineNone",
                }
              }
              href="/innometrics_dashboard/forms"
            >
              <WithStyles(ForwardRef(Typography))
                className="MuiLink-root MuiLink-underlineHover"
                color="primary"
                component="a"
                href="/innometrics_dashboard/forms"
                onBlur={[Function]}
                onFocus={[Function]}
                variant="inherit"
              >
                <ForwardRef(Typography)
                  className="MuiLink-root MuiLink-underlineHover"
                  classes={
                    Object {
                      "alignCenter": "MuiTypography-alignCenter",
                      "alignJustify": "MuiTypography-alignJustify",
                      "alignLeft": "MuiTypography-alignLeft",
                      "alignRight": "MuiTypography-alignRight",
                      "body1": "MuiTypography-body1",
                      "body2": "MuiTypography-body2",
                      "button": "MuiTypography-button",
                      "caption": "MuiTypography-caption",
                      "colorError": "MuiTypography-colorError",
                      "colorInherit": "MuiTypography-colorInherit",
                      "colorPrimary": "MuiTypography-colorPrimary",
                      "colorSecondary": "MuiTypography-colorSecondary",
                      "colorTextPrimary": "MuiTypography-colorTextPrimary",
                      "colorTextSecondary": "MuiTypography-colorTextSecondary",
                      "displayBlock": "MuiTypography-displayBlock",
                      "displayInline": "MuiTypography-displayInline",
                      "gutterBottom": "MuiTypography-gutterBottom",
                      "h1": "MuiTypography-h1",
                      "h2": "MuiTypography-h2",
                      "h3": "MuiTypography-h3",
                      "h4": "MuiTypography-h4",
                      "h5": "MuiTypography-h5",
                      "h6": "MuiTypography-h6",
                      "noWrap": "MuiTypography-noWrap",
                      "overline": "MuiTypography-overline",
                      "paragraph": "MuiTypography-paragraph",
                      "root": "MuiTypography-root",
                      "srOnly": "MuiTypography-srOnly",
                      "subtitle1": "MuiTypography-subtitle1",
                      "subtitle2": "MuiTypography-subtitle2",
                    }
                  }
                  color="primary"
                  component="a"
                  href="/innometrics_dashboard/forms"
                  onBlur={[Function]}
                  onFocus={[Function]}
                  variant="inherit"
                >
                  <a
                    className="MuiTypography-root MuiLink-root MuiLink-underlineHover MuiTypography-colorPrimary"
                    href="/innometrics_dashboard/forms"
                    onBlur={[Function]}
                    onFocus={[Function]}
                  >
                    <WithStyles(ForwardRef(ListItem))
                      button={true}
                    >
                      <ForwardRef(ListItem)
                        button={true}
                        classes={
                          Object {
                            "alignItemsFlexStart": "MuiListItem-alignItemsFlexStart",
                            "button": "MuiListItem-button",
                            "container": "MuiListItem-container",
                            "dense": "MuiListItem-dense",
                            "disabled": "Mui-disabled",
                            "divider": "MuiListItem-divider",
                            "focusVisible": "Mui-focusVisible",
                            "gutters": "MuiListItem-gutters",
                            "root": "MuiListItem-root",
                            "secondaryAction": "MuiListItem-secondaryAction",
                            "selected": "Mui-selected",
                          }
                        }
                      >
                        <WithStyles(ForwardRef(ButtonBase))
                          className="MuiListItem-root MuiListItem-gutters MuiListItem-button"
                          component="div"
                          disabled={false}
                          focusVisibleClassName="Mui-focusVisible"
                        >
                          <ForwardRef(ButtonBase)
                            className="MuiListItem-root MuiListItem-gutters MuiListItem-button"
                            classes={
                              Object {
                                "disabled": "Mui-disabled",
                                "focusVisible": "Mui-focusVisible",
                                "root": "MuiButtonBase-root",
                              }
                            }
                            component="div"
                            disabled={false}
                            focusVisibleClassName="Mui-focusVisible"
                          >
                            <div
                              aria-disabled={false}
                              className="MuiButtonBase-root MuiListItem-root MuiListItem-gutters MuiListItem-button"
                              onBlur={[Function]}
                              onDragLeave={[Function]}
                              onFocus={[Function]}
                              onKeyDown={[Function]}
                              onKeyUp={[Function]}
                              onMouseDown={[Function]}
                              onMouseLeave={[Function]}
                              onMouseUp={[Function]}
                              onTouchEnd={[Function]}
                              onTouchMove={[Function]}
                              onTouchStart={[Function]}
                              role="button"
                              tabIndex={0}
                            >
                              <WithStyles(ForwardRef(ListItemIcon))
                                key=".0"
                              >
                                <ForwardRef(ListItemIcon)
                                  classes={
                                    Object {
                                      "alignItemsFlexStart": "MuiListItemIcon-alignItemsFlexStart",
                                      "root": "MuiListItemIcon-root",
                                    }
                                  }
                                >
                                  <div
                                    className="MuiListItemIcon-root"
                                  >
                                    <ForwardRef(MoveToInboxIcon)>
                                      <WithStyles(ForwardRef(SvgIcon))>
                                        <ForwardRef(SvgIcon)
                                          classes={
                                            Object {
                                              "colorAction": "MuiSvgIcon-colorAction",
                                              "colorDisabled": "MuiSvgIcon-colorDisabled",
                                              "colorError": "MuiSvgIcon-colorError",
                                              "colorPrimary": "MuiSvgIcon-colorPrimary",
                                              "colorSecondary": "MuiSvgIcon-colorSecondary",
                                              "fontSizeInherit": "MuiSvgIcon-fontSizeInherit",
                                              "fontSizeLarge": "MuiSvgIcon-fontSizeLarge",
                                              "fontSizeSmall": "MuiSvgIcon-fontSizeSmall",
                                              "root": "MuiSvgIcon-root",
                                            }
                                          }
                                        >
                                          <svg
                                            aria-hidden={true}
                                            className="MuiSvgIcon-root"
                                            focusable="false"
                                            viewBox="0 0 24 24"
                                          >
                                            <path
                                              d="M19 3H4.99c-1.11 0-1.98.9-1.98 2L3 19c0 1.1.88 2 1.99 2H19c1.1 0 2-.9 2-2V5c0-1.1-.9-2-2-2zm0 12h-4c0 1.66-1.35 3-3 3s-3-1.34-3-3H4.99V5H19v10zm-3-5h-2V7h-4v3H8l4 4 4-4z"
                                            />
                                          </svg>
                                        </ForwardRef(SvgIcon)>
                                      </WithStyles(ForwardRef(SvgIcon))>
                                    </ForwardRef(MoveToInboxIcon)>
                                  </div>
                                </ForwardRef(ListItemIcon)>
                              </WithStyles(ForwardRef(ListItemIcon))>
                              <WithStyles(ForwardRef(ListItemText))
                                key=".1"
                                primary="Forms"
                              >
                                <ForwardRef(ListItemText)
                                  classes={
                                    Object {
                                      "dense": "MuiListItemText-dense",
                                      "inset": "MuiListItemText-inset",
                                      "multiline": "MuiListItemText-multiline",
                                      "primary": "MuiListItemText-primary",
                                      "root": "MuiListItemText-root",
                                      "secondary": "MuiListItemText-secondary",
                                    }
                                  }
                                  primary="Forms"
                                >
                                  <div
                                    className="MuiListItemText-root"
                                  >
                                    <WithStyles(ForwardRef(Typography))
                                      className="MuiListItemText-primary"
                                      component="span"
                                      display="block"
                                      variant="body1"
                                    >
                                      <ForwardRef(Typography)
                                        className="MuiListItemText-primary"
                                        classes={
                                          Object {
                                            "alignCenter": "MuiTypography-alignCenter",
                                            "alignJustify": "MuiTypography-alignJustify",
                                            "alignLeft": "MuiTypography-alignLeft",
                                            "alignRight": "MuiTypography-alignRight",
                                            "body1": "MuiTypography-body1",
                                            "body2": "MuiTypography-body2",
                                            "button": "MuiTypography-button",
                                            "caption": "MuiTypography-caption",
                                            "colorError": "MuiTypography-colorError",
                                            "colorInherit": "MuiTypography-colorInherit",
                                            "colorPrimary": "MuiTypography-colorPrimary",
                                            "colorSecondary": "MuiTypography-colorSecondary",
                                            "colorTextPrimary": "MuiTypography-colorTextPrimary",
                                            "colorTextSecondary": "MuiTypography-colorTextSecondary",
                                            "displayBlock": "MuiTypography-displayBlock",
                                            "displayInline": "MuiTypography-displayInline",
                                            "gutterBottom": "MuiTypography-gutterBottom",
                                            "h1": "MuiTypography-h1",
                                            "h2": "MuiTypography-h2",
                                            "h3": "MuiTypography-h3",
                                            "h4": "MuiTypography-h4",
                                            "h5": "MuiTypography-h5",
                                            "h6": "MuiTypography-h6",
                                            "noWrap": "MuiTypography-noWrap",
                                            "overline": "MuiTypography-overline",
                                            "paragraph": "MuiTypography-paragraph",
                                            "root": "MuiTypography-root",
                                            "srOnly": "MuiTypography-srOnly",
                                            "subtitle1": "MuiTypography-subtitle1",
                                            "subtitle2": "MuiTypography-subtitle2",
                                          }
                                        }
                                        component="span"
                                        display="block"
                                        variant="body1"
                                      >
                                        <span
                                          className="MuiTypography-root MuiListItemText-primary MuiTypography-body1 MuiTypography-displayBlock"
                                        >
                                          Forms
                                        </span>
                                      </ForwardRef(Typography)>
                                    </WithStyles(ForwardRef(Typography))>
                                  </div>
                                </ForwardRef(ListItemText)>
                              </WithStyles(ForwardRef(ListItemText))>
                              <WithStyles(memo)
                                center={false}
                              >
                                <ForwardRef(TouchRipple)
                                  center={false}
                                  classes={
                                    Object {
                                      "child": "MuiTouchRipple-child",
                                      "childLeaving": "MuiTouchRipple-childLeaving",
                                      "childPulsate": "MuiTouchRipple-childPulsate",
                                      "ripple": "MuiTouchRipple-ripple",
                                      "ripplePulsate": "MuiTouchRipple-ripplePulsate",
                                      "rippleVisible": "MuiTouchRipple-rippleVisible",
                                      "root": "MuiTouchRipple-root",
                                    }
                                  }
                                >
                                  <span
                                    className="MuiTouchRipple-root"
                                  >
                                    <TransitionGroup
                                      childFactory={[Function]}
                                      component={null}
                                      exit={true}
                                    />
                                  </span>
                                </ForwardRef(TouchRipple)>
                              </WithStyles(memo)>
                            </div>
                          </ForwardRef(ButtonBase)>
                        </WithStyles(ForwardRef(ButtonBase))>
                      </ForwardRef(ListItem)>
                    </WithStyles(ForwardRef(ListItem))>
                  </a>
                </ForwardRef(Typography)>
              </WithStyles(ForwardRef(Typography))>
            </ForwardRef(Link)>
          </WithStyles(ForwardRef(Link))>
        </ul>
      </ForwardRef(List)>
    </WithStyles(ForwardRef(List))>
  </div>,
  <div
    className="MuiToolbar-root MuiToolbar-regular MuiToolbar-gutters"
  />,
  <div
    aria-disabled={false}
    className="MuiButtonBase-root MuiListItem-root MuiListItem-gutters MuiListItem-button"
    onBlur={[Function]}
    onDragLeave={[Function]}
    onFocus={[Function]}
    onKeyDown={[Function]}
    onKeyUp={[Function]}
    onMouseDown={[Function]}
    onMouseLeave={[Function]}
    onMouseUp={[Function]}
    onTouchEnd={[Function]}
    onTouchMove={[Function]}
    onTouchStart={[Function]}
    role="button"
    tabIndex={0}
  >
    <WithStyles(ForwardRef(ListItemIcon))
      key=".0"
    >
      <ForwardRef(ListItemIcon)
        classes={
          Object {
            "alignItemsFlexStart": "MuiListItemIcon-alignItemsFlexStart",
            "root": "MuiListItemIcon-root",
          }
        }
      >
        <div
          className="MuiListItemIcon-root"
        >
          <ForwardRef(MoveToInboxIcon)>
            <WithStyles(ForwardRef(SvgIcon))>
              <ForwardRef(SvgIcon)
                classes={
                  Object {
                    "colorAction": "MuiSvgIcon-colorAction",
                    "colorDisabled": "MuiSvgIcon-colorDisabled",
                    "colorError": "MuiSvgIcon-colorError",
                    "colorPrimary": "MuiSvgIcon-colorPrimary",
                    "colorSecondary": "MuiSvgIcon-colorSecondary",
                    "fontSizeInherit": "MuiSvgIcon-fontSizeInherit",
                    "fontSizeLarge": "MuiSvgIcon-fontSizeLarge",
                    "fontSizeSmall": "MuiSvgIcon-fontSizeSmall",
                    "root": "MuiSvgIcon-root",
                  }
                }
              >
                <svg
                  aria-hidden={true}
                  className="MuiSvgIcon-root"
                  focusable="false"
                  viewBox="0 0 24 24"
                >
                  <path
                    d="M19 3H4.99c-1.11 0-1.98.9-1.98 2L3 19c0 1.1.88 2 1.99 2H19c1.1 0 2-.9 2-2V5c0-1.1-.9-2-2-2zm0 12h-4c0 1.66-1.35 3-3 3s-3-1.34-3-3H4.99V5H19v10zm-3-5h-2V7h-4v3H8l4 4 4-4z"
                  />
                </svg>
              </ForwardRef(SvgIcon)>
            </WithStyles(ForwardRef(SvgIcon))>
          </ForwardRef(MoveToInboxIcon)>
        </div>
      </ForwardRef(ListItemIcon)>
    </WithStyles(ForwardRef(ListItemIcon))>
    <WithStyles(ForwardRef(ListItemText))
      key=".1"
      primary="Main"
    >
      <ForwardRef(ListItemText)
        classes={
          Object {
            "dense": "MuiListItemText-dense",
            "inset": "MuiListItemText-inset",
            "multiline": "MuiListItemText-multiline",
            "primary": "MuiListItemText-primary",
            "root": "MuiListItemText-root",
            "secondary": "MuiListItemText-secondary",
          }
        }
        primary="Main"
      >
        <div
          className="MuiListItemText-root"
        >
          <WithStyles(ForwardRef(Typography))
            className="MuiListItemText-primary"
            component="span"
            display="block"
            variant="body1"
          >
            <ForwardRef(Typography)
              className="MuiListItemText-primary"
              classes={
                Object {
                  "alignCenter": "MuiTypography-alignCenter",
                  "alignJustify": "MuiTypography-alignJustify",
                  "alignLeft": "MuiTypography-alignLeft",
                  "alignRight": "MuiTypography-alignRight",
                  "body1": "MuiTypography-body1",
                  "body2": "MuiTypography-body2",
                  "button": "MuiTypography-button",
                  "caption": "MuiTypography-caption",
                  "colorError": "MuiTypography-colorError",
                  "colorInherit": "MuiTypography-colorInherit",
                  "colorPrimary": "MuiTypography-colorPrimary",
                  "colorSecondary": "MuiTypography-colorSecondary",
                  "colorTextPrimary": "MuiTypography-colorTextPrimary",
                  "colorTextSecondary": "MuiTypography-colorTextSecondary",
                  "displayBlock": "MuiTypography-displayBlock",
                  "displayInline": "MuiTypography-displayInline",
                  "gutterBottom": "MuiTypography-gutterBottom",
                  "h1": "MuiTypography-h1",
                  "h2": "MuiTypography-h2",
                  "h3": "MuiTypography-h3",
                  "h4": "MuiTypography-h4",
                  "h5": "MuiTypography-h5",
                  "h6": "MuiTypography-h6",
                  "noWrap": "MuiTypography-noWrap",
                  "overline": "MuiTypography-overline",
                  "paragraph": "MuiTypography-paragraph",
                  "root": "MuiTypography-root",
                  "srOnly": "MuiTypography-srOnly",
                  "subtitle1": "MuiTypography-subtitle1",
                  "subtitle2": "MuiTypography-subtitle2",
                }
              }
              component="span"
              display="block"
              variant="body1"
            >
              <span
                className="MuiTypography-root MuiListItemText-primary MuiTypography-body1 MuiTypography-displayBlock"
              >
                Main
              </span>
            </ForwardRef(Typography)>
          </WithStyles(ForwardRef(Typography))>
        </div>
      </ForwardRef(ListItemText)>
    </WithStyles(ForwardRef(ListItemText))>
    <WithStyles(memo)
      center={false}
    >
      <ForwardRef(TouchRipple)
        center={false}
        classes={
          Object {
            "child": "MuiTouchRipple-child",
            "childLeaving": "MuiTouchRipple-childLeaving",
            "childPulsate": "MuiTouchRipple-childPulsate",
            "ripple": "MuiTouchRipple-ripple",
            "ripplePulsate": "MuiTouchRipple-ripplePulsate",
            "rippleVisible": "MuiTouchRipple-rippleVisible",
            "root": "MuiTouchRipple-root",
          }
        }
      >
        <span
          className="MuiTouchRipple-root"
        >
          <TransitionGroup
            childFactory={[Function]}
            component={null}
            exit={true}
          />
        </span>
      </ForwardRef(TouchRipple)>
    </WithStyles(memo)>
  </div>,
  <div
    className="MuiListItemIcon-root"
  >
    <ForwardRef(MoveToInboxIcon)>
      <WithStyles(ForwardRef(SvgIcon))>
        <ForwardRef(SvgIcon)
          classes={
            Object {
              "colorAction": "MuiSvgIcon-colorAction",
              "colorDisabled": "MuiSvgIcon-colorDisabled",
              "colorError": "MuiSvgIcon-colorError",
              "colorPrimary": "MuiSvgIcon-colorPrimary",
              "colorSecondary": "MuiSvgIcon-colorSecondary",
              "fontSizeInherit": "MuiSvgIcon-fontSizeInherit",
              "fontSizeLarge": "MuiSvgIcon-fontSizeLarge",
              "fontSizeSmall": "MuiSvgIcon-fontSizeSmall",
              "root": "MuiSvgIcon-root",
            }
          }
        >
          <svg
            aria-hidden={true}
            className="MuiSvgIcon-root"
            focusable="false"
            viewBox="0 0 24 24"
          >
            <path
              d="M19 3H4.99c-1.11 0-1.98.9-1.98 2L3 19c0 1.1.88 2 1.99 2H19c1.1 0 2-.9 2-2V5c0-1.1-.9-2-2-2zm0 12h-4c0 1.66-1.35 3-3 3s-3-1.34-3-3H4.99V5H19v10zm-3-5h-2V7h-4v3H8l4 4 4-4z"
            />
          </svg>
        </ForwardRef(SvgIcon)>
      </WithStyles(ForwardRef(SvgIcon))>
    </ForwardRef(MoveToInboxIcon)>
  </div>,
  <div
    className="MuiListItemText-root"
  >
    <WithStyles(ForwardRef(Typography))
      className="MuiListItemText-primary"
      component="span"
      display="block"
      variant="body1"
    >
      <ForwardRef(Typography)
        className="MuiListItemText-primary"
        classes={
          Object {
            "alignCenter": "MuiTypography-alignCenter",
            "alignJustify": "MuiTypography-alignJustify",
            "alignLeft": "MuiTypography-alignLeft",
            "alignRight": "MuiTypography-alignRight",
            "body1": "MuiTypography-body1",
            "body2": "MuiTypography-body2",
            "button": "MuiTypography-button",
            "caption": "MuiTypography-caption",
            "colorError": "MuiTypography-colorError",
            "colorInherit": "MuiTypography-colorInherit",
            "colorPrimary": "MuiTypography-colorPrimary",
            "colorSecondary": "MuiTypography-colorSecondary",
            "colorTextPrimary": "MuiTypography-colorTextPrimary",
            "colorTextSecondary": "MuiTypography-colorTextSecondary",
            "displayBlock": "MuiTypography-displayBlock",
            "displayInline": "MuiTypography-displayInline",
            "gutterBottom": "MuiTypography-gutterBottom",
            "h1": "MuiTypography-h1",
            "h2": "MuiTypography-h2",
            "h3": "MuiTypography-h3",
            "h4": "MuiTypography-h4",
            "h5": "MuiTypography-h5",
            "h6": "MuiTypography-h6",
            "noWrap": "MuiTypography-noWrap",
            "overline": "MuiTypography-overline",
            "paragraph": "MuiTypography-paragraph",
            "root": "MuiTypography-root",
            "srOnly": "MuiTypography-srOnly",
            "subtitle1": "MuiTypography-subtitle1",
            "subtitle2": "MuiTypography-subtitle2",
          }
        }
        component="span"
        display="block"
        variant="body1"
      >
        <span
          className="MuiTypography-root MuiListItemText-primary MuiTypography-body1 MuiTypography-displayBlock"
        >
          Main
        </span>
      </ForwardRef(Typography)>
    </WithStyles(ForwardRef(Typography))>
  </div>,
  <div
    aria-disabled={false}
    className="MuiButtonBase-root MuiListItem-root MuiListItem-gutters MuiListItem-button"
    onBlur={[Function]}
    onDragLeave={[Function]}
    onFocus={[Function]}
    onKeyDown={[Function]}
    onKeyUp={[Function]}
    onMouseDown={[Function]}
    onMouseLeave={[Function]}
    onMouseUp={[Function]}
    onTouchEnd={[Function]}
    onTouchMove={[Function]}
    onTouchStart={[Function]}
    role="button"
    tabIndex={0}
  >
    <WithStyles(ForwardRef(ListItemIcon))
      key=".0"
    >
      <ForwardRef(ListItemIcon)
        classes={
          Object {
            "alignItemsFlexStart": "MuiListItemIcon-alignItemsFlexStart",
            "root": "MuiListItemIcon-root",
          }
        }
      >
        <div
          className="MuiListItemIcon-root"
        >
          <ForwardRef(MoveToInboxIcon)>
            <WithStyles(ForwardRef(SvgIcon))>
              <ForwardRef(SvgIcon)
                classes={
                  Object {
                    "colorAction": "MuiSvgIcon-colorAction",
                    "colorDisabled": "MuiSvgIcon-colorDisabled",
                    "colorError": "MuiSvgIcon-colorError",
                    "colorPrimary": "MuiSvgIcon-colorPrimary",
                    "colorSecondary": "MuiSvgIcon-colorSecondary",
                    "fontSizeInherit": "MuiSvgIcon-fontSizeInherit",
                    "fontSizeLarge": "MuiSvgIcon-fontSizeLarge",
                    "fontSizeSmall": "MuiSvgIcon-fontSizeSmall",
                    "root": "MuiSvgIcon-root",
                  }
                }
              >
                <svg
                  aria-hidden={true}
                  className="MuiSvgIcon-root"
                  focusable="false"
                  viewBox="0 0 24 24"
                >
                  <path
                    d="M19 3H4.99c-1.11 0-1.98.9-1.98 2L3 19c0 1.1.88 2 1.99 2H19c1.1 0 2-.9 2-2V5c0-1.1-.9-2-2-2zm0 12h-4c0 1.66-1.35 3-3 3s-3-1.34-3-3H4.99V5H19v10zm-3-5h-2V7h-4v3H8l4 4 4-4z"
                  />
                </svg>
              </ForwardRef(SvgIcon)>
            </WithStyles(ForwardRef(SvgIcon))>
          </ForwardRef(MoveToInboxIcon)>
        </div>
      </ForwardRef(ListItemIcon)>
    </WithStyles(ForwardRef(ListItemIcon))>
    <WithStyles(ForwardRef(ListItemText))
      key=".1"
      primary="Forms"
    >
      <ForwardRef(ListItemText)
        classes={
          Object {
            "dense": "MuiListItemText-dense",
            "inset": "MuiListItemText-inset",
            "multiline": "MuiListItemText-multiline",
            "primary": "MuiListItemText-primary",
            "root": "MuiListItemText-root",
            "secondary": "MuiListItemText-secondary",
          }
        }
        primary="Forms"
      >
        <div
          className="MuiListItemText-root"
        >
          <WithStyles(ForwardRef(Typography))
            className="MuiListItemText-primary"
            component="span"
            display="block"
            variant="body1"
          >
            <ForwardRef(Typography)
              className="MuiListItemText-primary"
              classes={
                Object {
                  "alignCenter": "MuiTypography-alignCenter",
                  "alignJustify": "MuiTypography-alignJustify",
                  "alignLeft": "MuiTypography-alignLeft",
                  "alignRight": "MuiTypography-alignRight",
                  "body1": "MuiTypography-body1",
                  "body2": "MuiTypography-body2",
                  "button": "MuiTypography-button",
                  "caption": "MuiTypography-caption",
                  "colorError": "MuiTypography-colorError",
                  "colorInherit": "MuiTypography-colorInherit",
                  "colorPrimary": "MuiTypography-colorPrimary",
                  "colorSecondary": "MuiTypography-colorSecondary",
                  "colorTextPrimary": "MuiTypography-colorTextPrimary",
                  "colorTextSecondary": "MuiTypography-colorTextSecondary",
                  "displayBlock": "MuiTypography-displayBlock",
                  "displayInline": "MuiTypography-displayInline",
                  "gutterBottom": "MuiTypography-gutterBottom",
                  "h1": "MuiTypography-h1",
                  "h2": "MuiTypography-h2",
                  "h3": "MuiTypography-h3",
                  "h4": "MuiTypography-h4",
                  "h5": "MuiTypography-h5",
                  "h6": "MuiTypography-h6",
                  "noWrap": "MuiTypography-noWrap",
                  "overline": "MuiTypography-overline",
                  "paragraph": "MuiTypography-paragraph",
                  "root": "MuiTypography-root",
                  "srOnly": "MuiTypography-srOnly",
                  "subtitle1": "MuiTypography-subtitle1",
                  "subtitle2": "MuiTypography-subtitle2",
                }
              }
              component="span"
              display="block"
              variant="body1"
            >
              <span
                className="MuiTypography-root MuiListItemText-primary MuiTypography-body1 MuiTypography-displayBlock"
              >
                Forms
              </span>
            </ForwardRef(Typography)>
          </WithStyles(ForwardRef(Typography))>
        </div>
      </ForwardRef(ListItemText)>
    </WithStyles(ForwardRef(ListItemText))>
    <WithStyles(memo)
      center={false}
    >
      <ForwardRef(TouchRipple)
        center={false}
        classes={
          Object {
            "child": "MuiTouchRipple-child",
            "childLeaving": "MuiTouchRipple-childLeaving",
            "childPulsate": "MuiTouchRipple-childPulsate",
            "ripple": "MuiTouchRipple-ripple",
            "ripplePulsate": "MuiTouchRipple-ripplePulsate",
            "rippleVisible": "MuiTouchRipple-rippleVisible",
            "root": "MuiTouchRipple-root",
          }
        }
      >
        <span
          className="MuiTouchRipple-root"
        >
          <TransitionGroup
            childFactory={[Function]}
            component={null}
            exit={true}
          />
        </span>
      </ForwardRef(TouchRipple)>
    </WithStyles(memo)>
  </div>,
  <div
    className="MuiListItemIcon-root"
  >
    <ForwardRef(MoveToInboxIcon)>
      <WithStyles(ForwardRef(SvgIcon))>
        <ForwardRef(SvgIcon)
          classes={
            Object {
              "colorAction": "MuiSvgIcon-colorAction",
              "colorDisabled": "MuiSvgIcon-colorDisabled",
              "colorError": "MuiSvgIcon-colorError",
              "colorPrimary": "MuiSvgIcon-colorPrimary",
              "colorSecondary": "MuiSvgIcon-colorSecondary",
              "fontSizeInherit": "MuiSvgIcon-fontSizeInherit",
              "fontSizeLarge": "MuiSvgIcon-fontSizeLarge",
              "fontSizeSmall": "MuiSvgIcon-fontSizeSmall",
              "root": "MuiSvgIcon-root",
            }
          }
        >
          <svg
            aria-hidden={true}
            className="MuiSvgIcon-root"
            focusable="false"
            viewBox="0 0 24 24"
          >
            <path
              d="M19 3H4.99c-1.11 0-1.98.9-1.98 2L3 19c0 1.1.88 2 1.99 2H19c1.1 0 2-.9 2-2V5c0-1.1-.9-2-2-2zm0 12h-4c0 1.66-1.35 3-3 3s-3-1.34-3-3H4.99V5H19v10zm-3-5h-2V7h-4v3H8l4 4 4-4z"
            />
          </svg>
        </ForwardRef(SvgIcon)>
      </WithStyles(ForwardRef(SvgIcon))>
    </ForwardRef(MoveToInboxIcon)>
  </div>,
  <div
    className="MuiListItemText-root"
  >
    <WithStyles(ForwardRef(Typography))
      className="MuiListItemText-primary"
      component="span"
      display="block"
      variant="body1"
    >
      <ForwardRef(Typography)
        className="MuiListItemText-primary"
        classes={
          Object {
            "alignCenter": "MuiTypography-alignCenter",
            "alignJustify": "MuiTypography-alignJustify",
            "alignLeft": "MuiTypography-alignLeft",
            "alignRight": "MuiTypography-alignRight",
            "body1": "MuiTypography-body1",
            "body2": "MuiTypography-body2",
            "button": "MuiTypography-button",
            "caption": "MuiTypography-caption",
            "colorError": "MuiTypography-colorError",
            "colorInherit": "MuiTypography-colorInherit",
            "colorPrimary": "MuiTypography-colorPrimary",
            "colorSecondary": "MuiTypography-colorSecondary",
            "colorTextPrimary": "MuiTypography-colorTextPrimary",
            "colorTextSecondary": "MuiTypography-colorTextSecondary",
            "displayBlock": "MuiTypography-displayBlock",
            "displayInline": "MuiTypography-displayInline",
            "gutterBottom": "MuiTypography-gutterBottom",
            "h1": "MuiTypography-h1",
            "h2": "MuiTypography-h2",
            "h3": "MuiTypography-h3",
            "h4": "MuiTypography-h4",
            "h5": "MuiTypography-h5",
            "h6": "MuiTypography-h6",
            "noWrap": "MuiTypography-noWrap",
            "overline": "MuiTypography-overline",
            "paragraph": "MuiTypography-paragraph",
            "root": "MuiTypography-root",
            "srOnly": "MuiTypography-srOnly",
            "subtitle1": "MuiTypography-subtitle1",
            "subtitle2": "MuiTypography-subtitle2",
          }
        }
        component="span"
        display="block"
        variant="body1"
      >
        <span
          className="MuiTypography-root MuiListItemText-primary MuiTypography-body1 MuiTypography-displayBlock"
        >
          Forms
        </span>
      </ForwardRef(Typography)>
    </WithStyles(ForwardRef(Typography))>
  </div>,
]
`;
